<?xml version="1.0" encoding="utf-8"?>
<!-- Generator: Adobe Illustrator 18.0.0, SVG Export Plug-In . SVG Version: 6.00 Build 0)  -->
<!DOCTYPE svg PUBLIC "-//W3C//DTD SVG 1.1//EN" "http://www.w3.org/Graphics/SVG/1.1/DTD/svg11.dtd">
<svg version="1.1" id="glyph-download" xmlns="http://www.w3.org/2000/svg" xmlns:xlink="http://www.w3.org/1999/xlink" x="0px"
	 y="0px" width="18px" height="18px" viewBox="0 0 18 18" enable-background="new 0 0 18 18" xml:space="preserve">
<g id="glyph-download_1_">
	<path d="M8.292969,11.682617C8.488281,11.87793,8.744141,11.975586,9,11.975586s0.511719-0.097656,0.707031-0.292969
		l4.19043-4.190918c0.390625-0.390625,0.390625-1.023438,0-1.414062s-1.023438-0.390625-1.414062,0L10,8.56134V3
		c0-0.552246-0.447754-1-1-1S8,2.447754,8,3v5.56134L5.516602,6.077637c-0.390625-0.390625-1.023438-0.390625-1.414062,0
		s-0.390625,1.023438,0,1.414062L8.292969,11.682617z"/>
	<path d="M15,11c-0.552307,0-1,0.447693-1,1v2H4v-2c0-0.552307-0.447693-1-1-1s-1,0.447693-1,1v3c0,0.552246,0.447693,1,1,1h12
		c0.552307,0,1-0.447754,1-1v-3C16,11.447693,15.552307,11,15,11z"/>
</g>
</svg>
