<?xml version="1.0" encoding="utf-8"?>
<!-- Generator: Adobe Illustrator 18.0.0, SVG Export Plug-In . SVG Version: 6.00 Build 0)  -->
<!DOCTYPE svg PUBLIC "-//W3C//DTD SVG 1.1//EN" "http://www.w3.org/Graphics/SVG/1.1/DTD/svg11.dtd">
<svg version="1.1" id="glyph-left" xmlns="http://www.w3.org/2000/svg" xmlns:xlink="http://www.w3.org/1999/xlink" x="0px" y="0px"
	 width="18px" height="18px" viewBox="0 0 18 18" enable-background="new 0 0 18 18" xml:space="preserve">
<path id="glyph-left_1_" d="M7.409,8.99866l5.30328-5.30328c0.38892-0.38885,0.38892-1.02527,0-1.41418
	c-0.38885-0.38892-1.02527-0.38892-1.41418,0L5.28772,8.29156c-0.38892,0.38892-0.38892,1.02533,0,1.41425l6.010379,6.01038
	c0.38892,0.38892,1.02533,0.38892,1.41418,0c0.38892-0.38892,0.38892-1.02527,0-1.41418L7.409,8.99866z"/>
</svg>
