<?xml version="1.0" encoding="utf-8"?>
<!-- Generator: Adobe Illustrator 18.0.0, SVG Export Plug-In . SVG Version: 6.00 Build 0)  -->
<!DOCTYPE svg PUBLIC "-//W3C//DTD SVG 1.1//EN" "http://www.w3.org/Graphics/SVG/1.1/DTD/svg11.dtd">
<svg version="1.1" id="glyph-additional-info" xmlns="http://www.w3.org/2000/svg" xmlns:xlink="http://www.w3.org/1999/xlink"
	 x="0px" y="0px" width="18px" height="18px" viewBox="0 0 18 18" enable-background="new 0 0 18 18" xml:space="preserve">
<g id="glyph-additional-info_1_">
	<path d="M7,12h6c0.552734,0,1-0.447266,1-1s-0.447266-1-1-1H7c-0.552246,0-1,0.447266-1,1S6.447754,12,7,12z"/>
	<path d="M7,8h6c0.552734,0,1-0.447754,1-1s-0.447266-1-1-1H7C6.447754,6,6,6.447754,6,7S6.447754,8,7,8z"/>
	<path d="M16,3H4C3.447693,3,3,3.447693,3,4v2.792969L1.146484,8.646484c-0.195312,0.195312-0.195312,0.511719,0,0.707031
		L3,11.207031V14c0,0.552246,0.447693,1,1,1h12c0.552307,0,1-0.447754,1-1V4C17,3.447693,16.552307,3,16,3z M16,14H4v-1.792969
		V11.33075V10.79297L2.207031,9L4,7.207031V6.591064V5.792969V4h12V14z"/>
</g>
</svg>
