<?xml version="1.0" encoding="utf-8"?>
<!-- Generator: Adobe Illustrator 18.0.0, SVG Export Plug-In . SVG Version: 6.00 Build 0)  -->
<!DOCTYPE svg PUBLIC "-//W3C//DTD SVG 1.1//EN" "http://www.w3.org/Graphics/SVG/1.1/DTD/svg11.dtd">
<svg version="1.1" id="glyph-minus" xmlns="http://www.w3.org/2000/svg" xmlns:xlink="http://www.w3.org/1999/xlink" x="0px"
	 y="0px" width="18px" height="18px" viewBox="0 0 18 18" enable-background="new 0 0 18 18" xml:space="preserve">
<path id="glyph-minus_1_" d="M2.00187,7.9987h13.999999c0.549999,0,1,0.45,1,1l0,0c0,0.55-0.450001,1-1,1h-14c-0.55,0-1-0.45-1-1
	l0,0C1.00187,8.4487,1.45187,7.9987,2.00187,7.9987z"/>
</svg>
