<?xml version="1.0" encoding="utf-8"?>
<!-- Generator: Adobe Illustrator 18.0.0, SVG Export Plug-In . SVG Version: 6.00 Build 0)  -->
<!DOCTYPE svg PUBLIC "-//W3C//DTD SVG 1.1//EN" "http://www.w3.org/Graphics/SVG/1.1/DTD/svg11.dtd">
<svg version="1.1" id="airplane-filled" xmlns="http://www.w3.org/2000/svg" xmlns:xlink="http://www.w3.org/1999/xlink" x="0px"
	 y="0px" width="52px" height="52px" viewBox="0 0 52 52" enable-background="new 0 0 52 52" xml:space="preserve">
<path id="airplane-filled_1_" d="M16.34375,42.508789h-0.223631c-1.53027,0-2.240231-0.651371-2.56641-1.198238
	c-0.50781-0.85059-0.3252-1.829102,0.01562-2.459961l4.186521-7.171879l-5.86133,0.00098l-3.49805,2.87207
	c-0.27832,0.22168-0.45508,0.34277-0.5957,0.426762c-0.71191,0.47559-1.49707,0.548828-2.24121,0.55566L4.7627,35.53516
	c-0.32422,0-1.27734,0-2.01074-0.701172C2.27637,34.431641,1.99805,33.830078,2,33.19434
	c0-0.193359,0.02832-0.396481,0.08301-0.598629l0.03516-0.110352l2.31836-6.483891l-2.35352-6.59473
	C2.02832,19.20459,2,19.001459,2,18.803221c-0.00195-0.63232,0.27637-1.2334,0.75293-1.633791
	c0.73242-0.70117,1.68555-0.70117,2.00781-0.70117l0.78613,0.00049c0.75781,0.00684,1.54395,0.08057,2.25684,0.557131
	c0.12695,0.07617,0.2832,0.181641,0.51074,0.36084l4.631841,2.93701l4.806641,0.00049l-4.158199-7.1123
	c-0.36621-0.67627-0.54883-1.65381-0.04102-2.50488c0.32617-0.54639,1.03613-1.19824,2.566409-1.19824h0.223631
	c0.466801,0,1.644529,0.10352,2.27734,0.16846l0.396481,0.04785c1.78125,0.2041,2.856451,0.42188,3.512701,0.98535
	c0.72949,0.50684,2.98926,2.42236,9.46484,9.61377h11.584961c4.85059,0,6.419918,3.824711,6.419918,5.67725
	c0,1.852051-1.56934,5.67725-6.419922,5.67725h-11.59277c-6.682621,7.291019-8.866211,9.164059-9.411129,9.587891
	c-0.65234,0.59375-1.73535,0.81641-3.557621,1.025391l-0.337891,0.041019
	C17.991211,42.40527,16.814449,42.508789,16.34375,42.508789z"/>
</svg>
