<?xml version="1.0" encoding="utf-8"?>
<!-- Generator: Adobe Illustrator 18.0.0, SVG Export Plug-In . SVG Version: 6.00 Build 0)  -->
<!DOCTYPE svg PUBLIC "-//W3C//DTD SVG 1.1//EN" "http://www.w3.org/Graphics/SVG/1.1/DTD/svg11.dtd">
<svg version="1.1" id="glyph-rewards" xmlns="http://www.w3.org/2000/svg" xmlns:xlink="http://www.w3.org/1999/xlink" x="0px"
	 y="0px" width="18px" height="18px" viewBox="0 0 18 18" enable-background="new 0 0 18 18" xml:space="preserve">
<g id="glyph-rewards_1_">
	<path d="M15.44043,4.49707L9.6875,1.184082c-0.416992-0.241211-0.958496-0.241211-1.374512,0L2.55957,4.49707
		c-0.424316,0.245117-0.6875,0.700684-0.6875,1.189453v6.626954c0,0.490234,0.263672,0.945312,0.687988,1.189453l5.752441,3.3125
		C8.520996,16.936523,8.758789,17,9,17s0.479004-0.063477,0.687012-0.183594l5.752441-3.313477
		c0.424805-0.244141,0.688477-0.699219,0.688477-1.189453V5.686523C16.12793,5.197754,15.864258,4.742188,15.44043,4.49707z
		 M15.12793,12.313477c0,0.132812-0.071289,0.255859-0.1875,0.322266L9.1875,15.950195
		c-0.114258,0.064453-0.260254,0.06543-0.375488-0.000977l-5.753418-3.313477
		c-0.115234-0.066406-0.186523-0.189453-0.186523-0.322266V5.686523c0-0.132812,0.071777-0.256348,0.187012-0.323242
		L8.8125,2.050293C8.869629,2.017578,8.934082,2,9,2s0.130371,0.017578,0.187988,0.050293l5.752441,3.312988
		c0.115234,0.066895,0.1875,0.19043,0.1875,0.323242V12.313477z"/>
	<path d="M13.246094,6.970215l-2.696655-0.419739L9.263855,4.412781c-0.054077-0.09021-0.151733-0.145386-0.257019-0.145386
		S8.803894,4.322571,8.749817,4.412781L7.46405,6.550415L4.754089,6.970093c-0.109924,0.01709-0.201538,0.093567-0.237671,0.19873
		c-0.036316,0.105286-0.011353,0.221924,0.064819,0.30304l1.907471,2.03302l-0.493591,2.876953
		c-0.019348,0.112671,0.026978,0.226379,0.119324,0.293579c0.092773,0.066956,0.215088,0.075745,0.31604,0.022827l2.576355-1.354492
		l2.576172,1.354492c0.043945,0.023071,0.091797,0.034363,0.139648,0.034363c0.062134,0,0.124023-0.019348,0.176392-0.05719
		c0.092346-0.0672,0.138672-0.180908,0.119324-0.293579l-0.493347-2.877747l1.894531-2.03302
		c0.075562-0.081238,0.10022-0.197632,0.064087-0.302612C13.447266,7.063599,13.355896,6.987183,13.246094,6.970215z"/>
</g>
</svg>
