<?xml version="1.0" encoding="utf-8"?>
<!-- Generator: Adobe Illustrator 18.0.0, SVG Export Plug-In . SVG Version: 6.00 Build 0)  -->
<!DOCTYPE svg PUBLIC "-//W3C//DTD SVG 1.1//EN" "http://www.w3.org/Graphics/SVG/1.1/DTD/svg11.dtd">
<svg version="1.1" id="car" xmlns="http://www.w3.org/2000/svg" xmlns:xlink="http://www.w3.org/1999/xlink" x="0px" y="0px"
	 width="52px" height="52px" viewBox="0 0 52 52" enable-background="new 0 0 52 52" xml:space="preserve">
<g id="car_1_">
	<path d="M43.098633,19.385742l-2.926758-7.530762c-0.931641-2.437012-3.026367-3.834473-5.766602-3.834473H17.574707
		c-2.701172,0-4.793945,1.394043-5.743164,3.82666l-2.930664,7.540527C7.085449,20.047852,5.012207,21.97998,5,25.059082v11.418457
		c0,0.828125,0.671387,1.5,1.5,1.5H8v1.822266C8,42.116211,10.018555,44,12.5,44s4.5-1.883789,4.5-4.200195v-1.822266h18v1.822266
		C35,42.116211,37.018555,44,39.5,44s4.5-1.883789,4.5-4.200195v-1.822266h1.5c0.828125,0,1.5-0.671875,1.5-1.5v-11.41748
		C47.001953,21.979004,44.922852,20.044922,43.098633,19.385742z M14,39.799805C14,40.450195,13.312988,41,12.5,41
		S11,40.450195,11,39.799805V38h3V39.799805z M41,39.799805C41,40.450195,40.313477,41,39.5,41S38,40.450195,38,39.799805V38h3
		V39.799805z M44,34.977539H8v-9.912598c0.008301-2.02832,1.718262-2.873047,2.201172-2.931152
		c0.549316-0.066406,1.018066-0.429688,1.218262-0.945801l3.20752-8.251953c0.50293-1.289062,1.467285-1.915527,2.967773-1.915527
		h16.831055c1.490234,0,2.453125,0.623535,2.946289,1.913574l3.208008,8.253906
		c0.201172,0.516602,0.669922,0.880371,1.220703,0.945801C42.286133,22.191895,44.000977,23.03418,44,25.059082V34.977539z"/>
	<path d="M37.160156,21.843262c0.279297-0.408691,0.338867-0.929199,0.15918-1.390625l-1.59375-4.09375
		c-0.015625-0.040527-0.032227-0.07959-0.051758-0.118164c-0.295898-0.601562-1.082031-2.199219-3.06543-2.225098h-13.12793
		c-1.999512,0.025879-2.749023,1.473633-3.109375,2.169434c-0.020508,0.039551-0.039062,0.080078-0.056152,0.121582
		l-1.6875,4.121582c-0.189453,0.462402-0.135742,0.989258,0.142578,1.404297c0.278809,0.415039,0.745605,0.664062,1.245605,0.664062
		h19.90625C36.416992,22.496582,36.880859,22.251953,37.160156,21.843262z M18.250488,19.496582l0.814453-1.988281
		c0.206543-0.390625,0.297852-0.47168,0.300293-0.476562c0.000488,0,0.041992-0.014648,0.134766-0.016113l13.140625-0.001465
		c0.024414,0.01709,0.117188,0.103027,0.314453,0.495605l0.773438,1.986816H18.250488z"/>
	<path d="M14.000183,27C12.891357,27.003662,11.994812,27.898193,12,29.009033
		C11.995117,30.105774,12.891663,30.999695,14.000183,31C15.10199,30.999695,15.997986,30.105774,16,29.009033
		C15.997986,27.898438,15.10199,27.003967,14.000183,27z"/>
	<path d="M38.000183,27C36.891357,27.003662,35.994812,27.898193,36,29.009033
		C35.995117,30.105774,36.891663,30.999695,38.000183,31C39.10199,30.999695,39.997986,30.105774,40,29.009033
		C39.997986,27.898438,39.10199,27.003967,38.000183,27z"/>
</g>
</svg>
