<?xml version="1.0" encoding="utf-8"?>
<!-- Generator: Adobe Illustrator 18.0.0, SVG Export Plug-In . SVG Version: 6.00 Build 0)  -->
<!DOCTYPE svg PUBLIC "-//W3C//DTD SVG 1.1//EN" "http://www.w3.org/Graphics/SVG/1.1/DTD/svg11.dtd">
<svg version="1.1" id="business-services" xmlns="http://www.w3.org/2000/svg" xmlns:xlink="http://www.w3.org/1999/xlink" x="0px"
	 y="0px" width="52px" height="52px" viewBox="0 0 52 52" enable-background="new 0 0 52 52" xml:space="preserve">
<path id="business-services_1_" d="M34.986328,40.8125l-3.85022-27.947449l2.31604-8.991028
	c0.116211-0.44873,0.017578-0.92627-0.266602-1.292969S32.463867,2,32,2H20c-0.463867,0-0.901367,0.214355-1.185547,0.581055
	s-0.382812,0.844238-0.266602,1.292969l2.318359,9c0.027283,0.106445,0.082031,0.197571,0.130005,0.292664l-3.980591,27.637024
	c-0.067383,0.46875,0.089844,0.941406,0.424805,1.275391l7.5,7.482422C25.233398,49.853516,25.616211,50,26,50
	s0.766602-0.146484,1.05957-0.438477l7.5-7.482422C34.892578,41.74707,35.049805,41.27832,34.986328,40.8125z M30.064453,5
	l-1.544922,6h-5.039062l-1.544922-6H30.064453z M26,46.380859l-5.908203-5.893555L23.907227,14h4.356445l3.648438,26.482422
	L26,46.380859z"/>
</svg>
