<?xml version="1.0" encoding="utf-8"?>
<!-- Generator: Adobe Illustrator 18.0.0, SVG Export Plug-In . SVG Version: 6.00 Build 0)  -->
<!DOCTYPE svg PUBLIC "-//W3C//DTD SVG 1.1//EN" "http://www.w3.org/Graphics/SVG/1.1/DTD/svg11.dtd">
<svg version="1.1" id="calendar-filled" xmlns="http://www.w3.org/2000/svg" xmlns:xlink="http://www.w3.org/1999/xlink" x="0px"
	 y="0px" width="52px" height="52px" viewBox="0 0 52 52" enable-background="new 0 0 52 52" xml:space="preserve">
<path id="calendar-filled_1_" d="M44,34.91156c0.000118-0.01025,0.000118-0.019901,0-0.030151V11.00006c0-1.65002-1.349979-3-3-3h-3
	V6.5C38,5.67139,37.328121,5,36.5,5S35,5.67139,35,6.5v1.50006H17V6.5C17,5.67139,16.328119,5,15.5,5S14,5.67139,14,6.5v1.50006h-3
	c-1.64996,0-3,1.34998-3,3v32.999882c0,1.650021,1.35004,3,3,3h20.8811c0.005251,0.000061,0.01013,0.002991,0.015381,0.002991
	S31.90662,47,31.911869,46.999939H32v-0.017151c0.347839-0.02441,0.690922-0.153198,0.957031-0.419312L43.56348,35.957027
	c0.266109-0.266109,0.394901-0.609131,0.419312-0.957031H44V34.91156z M14,11.00006V12.5c0,0.82861,0.67188,1.5,1.5,1.5
	c0.828119,0,1.5-0.67139,1.5-1.5v-1.49994h18V12.5c0,0.82861,0.671879,1.5,1.5,1.5s1.5-0.67139,1.5-1.5v-1.49994h3V17H11v-5.99994
	H14z M32,43.27832v-8.278259h8.278259L32,43.27832z"/>
</svg>
