<?xml version="1.0" encoding="utf-8"?>
<!-- Generator: Adobe Illustrator 18.0.0, SVG Export Plug-In . SVG Version: 6.00 Build 0)  -->
<!DOCTYPE svg PUBLIC "-//W3C//DTD SVG 1.1//EN" "http://www.w3.org/Graphics/SVG/1.1/DTD/svg11.dtd">
<svg version="1.1" id="billing" xmlns="http://www.w3.org/2000/svg" xmlns:xlink="http://www.w3.org/1999/xlink" x="0px" y="0px"
	 width="52px" height="52px" viewBox="0 0 52 52" enable-background="new 0 0 52 52" xml:space="preserve">
<g id="billing_1_">
	<path d="M45.5,24.5c-0.82843,0-1.5,0.67157-1.5,1.5c0,9.925232-8.074768,18-18,18S8,35.925232,8,26S16.074768,8,26,8
		c5.725159,0,10.829041,2.691284,14.127869,6.870361l-2.332397,0.001343c-0.827393,0.002625-1.500549,0.672729-1.49884,1.500732
		c-0.000122,0.828796,0.671631,1.499695,1.500366,1.49939l6.000061-0.00354c0.072998-0.000122,0.144287-0.005432,0.214844-0.015564
		c0.726868-0.104614,1.285156-0.729553,1.283997-1.485168l-0.002991-6.000183
		c0.000183-0.828247-0.671631-1.499695-1.500305-1.499329c-0.825439,0.002808-1.499756,0.67157-1.49884,1.500732l0.001221,2.405518
		C38.445618,8.035278,32.58136,5,26,5C14.401978,5,5,14.401978,5,26s9.401978,21,21,21c11.5979,0,21-9.401978,21-21
		C47,25.17157,46.32843,24.5,45.5,24.5z"/>
	<path d="M32,24.5H20c-0.828613,0-1.5,0.671387-1.5,1.5s0.671387,1.5,1.5,1.5h12c0.828125,0,1.5-0.671387,1.5-1.5
		S32.828125,24.5,32,24.5z"/>
	<path d="M32,30.5H20c-0.828613,0-1.5,0.671875-1.5,1.5s0.671387,1.5,1.5,1.5h12c0.828125,0,1.5-0.671875,1.5-1.5
		S32.828125,30.5,32,30.5z"/>
	<path d="M32,18.5H20c-0.828613,0-1.5,0.671387-1.5,1.5s0.671387,1.5,1.5,1.5h12c0.828125,0,1.5-0.671387,1.5-1.5
		S32.828125,18.5,32,18.5z"/>
</g>
</svg>
