<?xml version="1.0" encoding="utf-8"?>
<!-- Generator: Adobe Illustrator 18.0.0, SVG Export Plug-In . SVG Version: 6.00 Build 0)  -->
<!DOCTYPE svg PUBLIC "-//W3C//DTD SVG 1.1//EN" "http://www.w3.org/Graphics/SVG/1.1/DTD/svg11.dtd">
<svg version="1.1" id="business-filled" xmlns="http://www.w3.org/2000/svg" xmlns:xlink="http://www.w3.org/1999/xlink" x="0px"
	 y="0px" width="52px" height="52px" viewBox="0 0 52 52" enable-background="new 0 0 52 52" xml:space="preserve">
<path id="business-filled_1_" d="M47,14H36v-3c0-1.650024-1.349976-3-3-3H19c-1.650024,0-3,1.349976-3,3v3H5
	c-1.650024,0-3,1.349976-3,3v13v11c0,1.649963,1.349976,3,3,3h42c1.650024,0,3-1.350037,3-3V30.18866V30V17
	C50,15.349976,48.650024,14,47,14z M19,11h14v3H19V11z M8.782227,32.00293L43.318359,32
	C44.936157,31.895386,46.967468,31.463196,47,30.032043v4.193542c-0.904419,0.390198-2.068542,0.675781-3.586914,0.771484
	l-10.5979,0.001648C32.399963,36.159058,31.298462,37,30,37h-8c-1.297974,0-2.399231-0.840332-2.814758-2H8.6875
	C7.121277,34.9021,5.923706,34.609436,5,34.208984V30C5,31.458984,7.056641,31.894531,8.782227,32.00293z"/>
</svg>
