<?xml version="1.0" encoding="utf-8"?>
<!-- Generator: Adobe Illustrator 18.0.0, SVG Export Plug-In . SVG Version: 6.00 Build 0)  -->
<!DOCTYPE svg PUBLIC "-//W3C//DTD SVG 1.1//EN" "http://www.w3.org/Graphics/SVG/1.1/DTD/svg11.dtd">
<svg version="1.1" id="card-benefit-filled" xmlns="http://www.w3.org/2000/svg" xmlns:xlink="http://www.w3.org/1999/xlink"
	 x="0px" y="0px" width="52px" height="52px" viewBox="0 0 52 52" enable-background="new 0 0 52 52" xml:space="preserve">
<path id="card-benefit-filled_1_" d="M49.917969,28.479492c-0.181641-0.525391-0.638672-0.90625-1.1875-0.992188L44,26.751404V11
	c0-1.650024-1.349976-3-3-3H5c-1.650024,0-3,1.349976-3,3v21c0,1.649963,1.349976,3,3,3h25.100464l0.057739,0.061523
	l-1.232422,7.18457c-0.09668,0.563477,0.134766,1.131836,0.59668,1.467773c0.462891,0.334961,1.075195,0.379883,1.580078,0.114258
	l6.415039-3.374023l6.415039,3.374023C44.152344,43.943359,44.391602,44,44.630859,44
	c0.310547,0,0.620117-0.09668,0.881836-0.286133c0.461914-0.335938,0.693359-0.904297,0.59668-1.467773l-1.232422-7.188477
	l4.720703-5.06543C49.975586,29.585938,50.098633,29.003906,49.917969,28.479492z M41,11v2H5v-2H41z M5,32V16h36v8.780579
	l-2.197266-3.653137c-0.270508-0.451172-0.758789-0.727051-1.285156-0.727051s-1.014648,0.275879-1.285156,0.727051
	l-3.195312,5.312012l-6.766602,1.047852c-0.549805,0.084961-1.007812,0.467773-1.188477,0.994141
	c-0.181641,0.525391-0.056641,1.108398,0.324219,1.514648L27.286133,32H5z"/>
</svg>
