<?xml version="1.0" encoding="utf-8"?>
<!-- Generator: Adobe Illustrator 18.0.0, SVG Export Plug-In . SVG Version: 6.00 Build 0)  -->
<!DOCTYPE svg PUBLIC "-//W3C//DTD SVG 1.1//EN" "http://www.w3.org/Graphics/SVG/1.1/DTD/svg11.dtd">
<svg version="1.1" id="billing-filled" xmlns="http://www.w3.org/2000/svg" xmlns:xlink="http://www.w3.org/1999/xlink" x="0px"
	 y="0px" width="52px" height="52px" viewBox="0 0 52 52" enable-background="new 0 0 52 52" xml:space="preserve">
<g id="billing-filled_1_">
	<path d="M45.5,24.5c-0.82843,0-1.5,0.67157-1.5,1.5c0,9.925232-8.074768,18-18,18S8,35.925232,8,26S16.074768,8,26,8
		c5.725159,0,10.829041,2.691284,14.127869,6.870361l-2.332397,0.001343c-0.827393,0.002625-1.500549,0.672668-1.49884,1.500732
		c-0.000122,0.828735,0.671631,1.499695,1.500366,1.499329l6.000061-0.003479
		c0.072998-0.000122,0.144287-0.005432,0.214844-0.015625c0.726868-0.104553,1.285156-0.729492,1.283997-1.485107
		l-0.002991-6.000183c0.000183-0.828247-0.671631-1.499695-1.500305-1.499329c-0.825439,0.002808-1.499756,0.67157-1.49884,1.500732
		l0.001221,2.405518C38.445618,8.035278,32.58136,5,26,5C14.401978,5,5,14.401978,5,26s9.401978,21,21,21
		c11.5979,0,21-9.401978,21-21C47,25.17157,46.32843,24.5,45.5,24.5z"/>
	<path d="M26,14c-6.627441,0-12,5.372559-12,12c0,6.62738,5.372559,12,12,12s12-5.37262,12-12C38,19.372559,32.627441,14,26,14z
		 M32,33.5H20c-0.828125,0-1.5-0.671875-1.5-1.5s0.671875-1.5,1.5-1.5h12c0.828125,0,1.5,0.671875,1.5,1.5S32.828125,33.5,32,33.5z
		 M32,27.5H20c-0.828125,0-1.5-0.671387-1.5-1.5s0.671875-1.5,1.5-1.5h12c0.828125,0,1.5,0.671387,1.5,1.5S32.828125,27.5,32,27.5z
		 M32,21.5H20c-0.828125,0-1.5-0.671387-1.5-1.5s0.671875-1.5,1.5-1.5h12c0.828125,0,1.5,0.671387,1.5,1.5S32.828125,21.5,32,21.5z"
		/>
</g>
</svg>
