<?xml version="1.0" encoding="utf-8"?>
<!-- Generator: Adobe Illustrator 18.0.0, SVG Export Plug-In . SVG Version: 6.00 Build 0)  -->
<!DOCTYPE svg PUBLIC "-//W3C//DTD SVG 1.1//EN" "http://www.w3.org/Graphics/SVG/1.1/DTD/svg11.dtd">
<svg version="1.1" id="bank-filled" xmlns="http://www.w3.org/2000/svg" xmlns:xlink="http://www.w3.org/1999/xlink" x="0px"
	 y="0px" width="52px" height="52px" viewBox="0 0 52 52" enable-background="new 0 0 52 52" xml:space="preserve">
<path id="bank-filled_1_" d="M44,38h-1.5V20h0.918945c0.501953,0,1.450195-0.066406,2.162109-0.51123
	C46.164062,19.125,46.499023,18.558105,46.5,17.932129c0-0.625977-0.333984-1.193848-0.917969-1.558594L28.164062,5.512207
	C27.450195,5.066406,26.501953,5,26,5s-1.450195,0.066406-2.163086,0.511719L6.416992,16.374023
	C5.833984,16.738281,5.5,17.306152,5.5,17.932129c0.000977,0.625977,0.335938,1.192871,0.916992,1.555664
	C7.130859,19.933594,8.079102,20,8.581055,20H9.5v18H8c-1.654297,0-3,1.345703-3,3v3c0,1.654297,1.345703,3,3,3h36
	c1.654297,0,3-1.345703,3-3v-3C47,39.345703,45.654297,38,44,38z M39.496094,38H36.5V20h3L39.496094,38z M27.496094,38H24.5V20h3
	L27.496094,38z M12.5,20h3l-0.003906,18H12.5V20z M18.5,38V20h3v18H18.5z M30.5,38V20h3v18H30.5z"/>
</svg>
