<?xml version="1.0" encoding="utf-8"?>
<!-- Generator: Adobe Illustrator 18.0.0, SVG Export Plug-In . SVG Version: 6.00 Build 0)  -->
<!DOCTYPE svg PUBLIC "-//W3C//DTD SVG 1.1//EN" "http://www.w3.org/Graphics/SVG/1.1/DTD/svg11.dtd">
<svg version="1.1" id="cashback" xmlns="http://www.w3.org/2000/svg" xmlns:xlink="http://www.w3.org/1999/xlink" x="0px" y="0px"
	 width="52px" height="52px" viewBox="0 0 52 52" enable-background="new 0 0 52 52" xml:space="preserve">
<g id="cashback_1_">
	<path d="M45.5,24.5c-0.82843,0-1.5,0.67157-1.5,1.5c0,9.925232-8.074768,18-18,18S8,35.925232,8,26S16.074768,8,26,8
		c5.725159,0,10.829041,2.691284,14.127869,6.870361l-2.332397,0.001343c-0.827393,0.002625-1.500549,0.672729-1.49884,1.500732
		c-0.000122,0.828796,0.671631,1.499695,1.500366,1.49939l6.000061-0.00354c0.072998-0.000122,0.144287-0.005432,0.214844-0.015564
		c0.726868-0.104614,1.285156-0.729553,1.283997-1.485168l-0.002991-6.000183
		c0.000183-0.828247-0.671631-1.499695-1.500305-1.499329c-0.825439,0.002808-1.499756,0.67157-1.49884,1.500732l0.001221,2.405518
		C38.445618,8.035278,32.58136,5,26,5C14.401978,5,5,14.401978,5,26s9.401978,21,21,21c11.5979,0,21-9.401978,21-21
		C47,25.17157,46.32843,24.5,45.5,24.5z"/>
	<path d="M26,36c0.828613,0,1.5-0.671875,1.5-1.5v-0.98291c2.664856-0.412415,4.43457-2.049622,4.43457-4.271973
		c0-2.937988-2.508789-3.906738-5.073242-4.645996c-2.941895-0.87207-3.359863-1.242676-3.359863-2.153809
		c0-0.827148,0.904297-1.361816,2.303711-1.361816c1.562012,0,2.544434,0.59375,3.185059,1.924316l0.133423,0.27655
		c0.179932,0.564392,0.702271,0.976013,1.326355,0.976013c0.772339,0,1.398438-0.626099,1.398438-1.398438
		c0-0.234924-0.063416-0.452942-0.165833-0.647339l-0.189453-0.437256c-0.741089-1.710999-2.134949-2.812683-3.993164-3.219177V17.5
		c0-0.828613-0.671387-1.5-1.5-1.5s-1.5,0.671387-1.5,1.5v1.006775c-2.345459,0.434509-3.946777,2.004517-3.946777,4.065979
		c0,2.833984,2.27832,3.708496,5.251465,4.555176c2.967773,0.873047,3.181641,1.423828,3.181641,2.226562
		c0,1.483398-2.105957,1.598633-2.751465,1.598633c-1.723145,0-2.907227-0.775391-3.52002-2.304688l-0.185791-0.46405
		c-0.171753-0.577881-0.700806-1.002136-1.334473-1.002136c-0.772339,0-1.398438,0.62616-1.398438,1.398438
		c0,0.195435,0.040649,0.381104,0.113037,0.550049l-0.007324,0.003052l0.199707,0.558594
		c0.703308,1.969788,2.300659,3.288818,4.398438,3.744202V34.5C24.5,35.328125,25.171387,36,26,36z"/>
</g>
</svg>
