<?xml version="1.0" encoding="utf-8"?>
<!-- Generator: Adobe Illustrator 18.0.0, SVG Export Plug-In . SVG Version: 6.00 Build 0)  -->
<!DOCTYPE svg PUBLIC "-//W3C//DTD SVG 1.1//EN" "http://www.w3.org/Graphics/SVG/1.1/DTD/svg11.dtd">
<svg version="1.1" id="card" xmlns="http://www.w3.org/2000/svg" xmlns:xlink="http://www.w3.org/1999/xlink" x="0px" y="0px"
	 width="52px" height="52px" viewBox="0 0 52 52" enable-background="new 0 0 52 52" xml:space="preserve">
<path id="card_1_" d="M47,9.5H5c-1.65002,0-3,1.34998-3,3v27c0,1.64996,1.34998,3,3,3h42c1.650021,0,3-1.35004,3-3v-27
	C50,10.84998,48.650021,9.5,47,9.5z M47,39.5H5v-21h42V39.5z M47,15.5H5v-3h42V15.5z"/>
</svg>
