<?xml version="1.0" encoding="utf-8"?>
<!-- Generator: Adobe Illustrator 18.0.0, SVG Export Plug-In . SVG Version: 6.00 Build 0)  -->
<!DOCTYPE svg PUBLIC "-//W3C//DTD SVG 1.1//EN" "http://www.w3.org/Graphics/SVG/1.1/DTD/svg11.dtd">
<svg version="1.1" id="declined-filled" xmlns="http://www.w3.org/2000/svg" xmlns:xlink="http://www.w3.org/1999/xlink" x="0px"
	 y="0px" width="52px" height="52px" viewBox="0 0 52 52" enable-background="new 0 0 52 52" xml:space="preserve">
<path id="declined-filled_1_" d="M49.901489,23.879944c-0.005798-0.066101-0.008789-0.132874-0.015137-0.198792
	c-0.064148-0.668396-0.15979-1.327148-0.277588-1.978394c-0.015686-0.086731-0.029785-0.173706-0.046448-0.260071
	c-0.123718-0.643433-0.274536-1.276855-0.448547-1.900879c-0.022461-0.080261-0.044922-0.160156-0.068176-0.240112
	c-0.183594-0.632812-0.391479-1.254883-0.624634-1.864929c-0.020752-0.054199-0.042603-0.107605-0.063721-0.161621
	c-0.247986-0.634888-0.519409-1.25769-0.818542-1.864929c-0.003174-0.006348-0.006531-0.012573-0.009644-0.018921
	c-0.944458-1.913025-2.136902-3.680359-3.534424-5.26355c-0.000122-0.000183-0.000244-0.000305-0.000366-0.000488l0,0
	c-0.662476-0.750427-1.370728-1.458618-2.121094-2.121094l0,0c-0.000061-0.000061-0.000061-0.000061-0.000122-0.000122
	c-1.583008-1.397583-3.350281-2.589966-5.263184-3.534485c-0.006775-0.003296-0.013367-0.006958-0.020142-0.010254
	c-0.607239-0.299133-1.230103-0.570679-1.86499-0.818604c-0.053772-0.020996-0.106995-0.042847-0.16095-0.063477
	c-0.610413-0.233337-1.23291-0.441223-1.866089-0.624939c-0.079346-0.02301-0.15863-0.045471-0.238342-0.067688
	c-0.624634-0.174194-1.258545-0.325256-1.902588-0.449036c-0.085815-0.016541-0.172302-0.030518-0.258423-0.046143
	c-0.65155-0.117859-1.310608-0.213684-1.97937-0.277771c-0.06604-0.006348-0.132812-0.009338-0.198975-0.015137
	C27.420898,2.037292,26.714966,2,26,2C12.745178,2,2,12.745117,2,26c0,0.714966,0.037292,1.420959,0.098511,2.120056
	c0.005798,0.066101,0.008789,0.132874,0.015137,0.198792c0.064148,0.668335,0.15979,1.327026,0.277588,1.97821
	c0.015747,0.086853,0.029846,0.174011,0.046509,0.260498c0.123779,0.643555,0.274536,1.276917,0.448608,1.901062
	c0.022339,0.080078,0.044861,0.15979,0.068054,0.239502c0.183655,0.632935,0.391479,1.255188,0.624695,1.865356
	c0.020691,0.054077,0.042542,0.107483,0.06366,0.161438c0.247986,0.634949,0.51947,1.257812,0.818665,1.865112
	c0.003113,0.006287,0.00647,0.012512,0.009583,0.018799c0.944458,1.913025,2.136963,3.68042,3.534546,5.263611
	c0.000183,0.000183,0.000244,0.000366,0.000427,0.000549l0,0c2.060242,2.33374,4.565247,4.263733,7.385193,5.656006
	c0.006287,0.003113,0.012451,0.00647,0.018799,0.009583c0.6073,0.299194,1.230164,0.570679,1.865112,0.818665
	c0.053955,0.021118,0.1073,0.042969,0.161438,0.06366c0.610168,0.233215,1.232422,0.44104,1.865356,0.624695
	c0.079712,0.023193,0.159424,0.045715,0.239502,0.068054c0.624146,0.174072,1.257507,0.324829,1.901062,0.448608
	c0.086487,0.016663,0.173645,0.030762,0.260498,0.046509c0.651184,0.117798,1.309875,0.21344,1.97821,0.277588
	c0.065918,0.006348,0.13269,0.009338,0.198792,0.015137C24.579041,49.962708,25.285034,50,26,50c13.254822,0,24-10.745178,24-24
	C50,25.285034,49.962708,24.579041,49.901489,23.879944z M39.731445,10.147827
	c0.756592,0.65625,1.464783,1.364563,2.121094,2.121155l-29.58374,29.583313
	c-0.756592-0.656311-1.464722-1.364441-2.121033-2.121033L39.731445,10.147827z"/>
</svg>
