<?xml version="1.0" encoding="utf-8"?>
<!-- Generator: Adobe Illustrator 18.0.0, SVG Export Plug-In . SVG Version: 6.00 Build 0)  -->
<!DOCTYPE svg PUBLIC "-//W3C//DTD SVG 1.1//EN" "http://www.w3.org/Graphics/SVG/1.1/DTD/svg11.dtd">
<svg version="1.1" id="data-protection-filled" xmlns="http://www.w3.org/2000/svg" xmlns:xlink="http://www.w3.org/1999/xlink"
	 x="0px" y="0px" width="52px" height="52px" viewBox="0 0 52 52" enable-background="new 0 0 52 52" xml:space="preserve">
<path id="data-protection-filled_1_" d="M47,23h-3v-2.992676c0-3.308594-2.691406-6-6-6V11c0-1.650024-1.349976-3-3-3H5
	c-1.650024,0-3,1.349976-3,3v24c0,1.649963,1.349976,3,3,3h21v3c0,1.649963,1.349976,3,3,3h18c1.650024,0,3-1.350037,3-3V26
	C50,24.349976,48.650024,23,47,23z M17.5,14c0,0.82843-0.67157,1.5-1.5,1.5s-1.5-0.67157-1.5-1.5s0.67157-1.5,1.5-1.5
	S17.5,13.17157,17.5,14z M13.5,14c0,0.82843-0.67157,1.5-1.5,1.5s-1.5-0.67157-1.5-1.5s0.67157-1.5,1.5-1.5S13.5,13.17157,13.5,14z
	 M9.5,14c0,0.82843-0.67157,1.5-1.5,1.5S6.5,14.82843,6.5,14s0.67157-1.5,1.5-1.5S9.5,13.17157,9.5,14z M41,20.007324v2.985352
	h-5.947937v-3.500488c0.245789-1.40863,1.470032-2.484863,2.947937-2.484863C39.654297,17.007324,41,18.353027,41,20.007324z M5,35
	V20h27.000366C32.000366,20.002441,32,20.004822,32,20.007324V23h-3c-1.650024,0-3,1.349976-3,3v9H5z M39.5,32.916077V36.5
	c0,0.828125-0.671875,1.5-1.5,1.5s-1.5-0.671875-1.5-1.5v-3.583923c-0.457214-0.411865-0.75-1.002319-0.75-1.666077
	c0-1.242676,1.007385-2.25,2.25-2.25s2.25,1.007324,2.25,2.25C40.25,31.913757,39.957214,32.504211,39.5,32.916077z"/>
</svg>
