<?xml version="1.0" encoding="utf-8"?>
<!-- Generator: Adobe Illustrator 18.0.0, SVG Export Plug-In . SVG Version: 6.00 Build 0)  -->
<!DOCTYPE svg PUBLIC "-//W3C//DTD SVG 1.1//EN" "http://www.w3.org/Graphics/SVG/1.1/DTD/svg11.dtd">
<svg version="1.1" id="data-protection" xmlns="http://www.w3.org/2000/svg" xmlns:xlink="http://www.w3.org/1999/xlink" x="0px"
	 y="0px" width="52px" height="52px" viewBox="0 0 52 52" enable-background="new 0 0 52 52" xml:space="preserve">
<g id="data-protection_1_">
	<circle cx="8" cy="14" r="1.5"/>
	<circle cx="12" cy="14" r="1.5"/>
	<circle cx="16" cy="14" r="1.5"/>
	<path d="M47,23h-3v-2.99268c0-3.30859-2.69141-6-6-6V11c0-1.65002-1.349979-3-3-3H5c-1.65002,0-3,1.34998-3,3v24
		c0,1.64996,1.34998,3,3,3h21v3c0,1.64996,1.349979,3,3,3h18c1.650021,0,3-1.35004,3-3V26C50,24.349979,48.650021,23,47,23z
		 M41,20.00732v2.98535h-6v-2.98535c0-1.654301,1.345699-3,3-3S41,18.353029,41,20.00732z M35,11v3.81909
		c-0.904171,0.5249-1.65765,1.277531-2.183781,2.18091H5v-6H35z M26,26v9H5V20h27.00037c0,0.002439-0.00037,0.00482-0.00037,0.00732
		V23h-3C27.349979,23,26,24.349979,26,26z M47,41H29V26h18V41z"/>
	<path d="M36.5,32.91608V36.5c0,0.828121,0.671879,1.5,1.5,1.5s1.5-0.671879,1.5-1.5v-3.58392
		c0.457211-0.411869,0.75-1.002319,0.75-1.66608c0-1.24268-1.007389-2.25-2.25-2.25s-2.25,1.00732-2.25,2.25
		C35.75,31.913759,36.042789,32.504211,36.5,32.91608z"/>
</g>
</svg>
