<?xml version="1.0" encoding="utf-8"?>
<!-- Generator: Adobe Illustrator 18.0.0, SVG Export Plug-In . SVG Version: 6.00 Build 0)  -->
<!DOCTYPE svg PUBLIC "-//W3C//DTD SVG 1.1//EN" "http://www.w3.org/Graphics/SVG/1.1/DTD/svg11.dtd">
<svg version="1.1" id="document" xmlns="http://www.w3.org/2000/svg" xmlns:xlink="http://www.w3.org/1999/xlink" x="0px" y="0px"
	 width="52px" height="52px" viewBox="0 0 52 52" enable-background="new 0 0 52 52" xml:space="preserve">
<path id="document_1_" d="M44,14.08862V14h-0.017269c-0.02441-0.3479-0.153198-0.69098-0.41925-0.95703L32.957031,2.43604
	C32.690922,2.16992,32.3479,2.04114,32,2.01672V2.00006h-0.08563c-0.012211-0.00012-0.02356-0.00012-0.03577,0H11
	c-1.64996,0-3,1.34998-3,3v41.999882c0,1.650021,1.35004,3,3,3h30c1.650021,0,3-1.349979,3-3V14.11877
	C44.000118,14.10852,44.000118,14.09888,44,14.08862z M40.27832,13.99994H32V5.72125L40.27832,13.99994z M11,46.999939V5.00006h18
	v8.99988c0,1.65002,1.349979,2.999999,3,2.999999h9v30H11z"/>
</svg>
