<?xml version="1.0" encoding="utf-8"?>
<!-- Generator: Adobe Illustrator 18.0.0, SVG Export Plug-In . SVG Version: 6.00 Build 0)  -->
<!DOCTYPE svg PUBLIC "-//W3C//DTD SVG 1.1//EN" "http://www.w3.org/Graphics/SVG/1.1/DTD/svg11.dtd">
<svg version="1.1" id="down-filled" xmlns="http://www.w3.org/2000/svg" xmlns:xlink="http://www.w3.org/1999/xlink" x="0px"
	 y="0px" width="52px" height="52px" viewBox="0 0 52 52" enable-background="new 0 0 52 52" xml:space="preserve">
<path id="down-filled_1_" d="M46.267578,14.98242C45.779301,14.49414,45.139648,14.25,44.5,14.25
	s-1.279301,0.24414-1.767578,0.73242L26,31.71484L9.26758,14.98242C8.7793,14.49414,8.13965,14.25,7.5,14.25
	s-1.2793,0.24414-1.76758,0.73242c-0.97656,0.97656-0.97656,2.55859,0,3.53516l18.5,18.499998
	c0.976561,0.976559,2.55859,0.976559,3.53516,0l18.499998-18.5C47.244141,17.541019,47.244141,15.95898,46.267578,14.98242z"/>
</svg>
