<?xml version="1.0" encoding="utf-8"?>
<!-- Generator: Adobe Illustrator 18.0.0, SVG Export Plug-In . SVG Version: 6.00 Build 0)  -->
<!DOCTYPE svg PUBLIC "-//W3C//DTD SVG 1.1//EN" "http://www.w3.org/Graphics/SVG/1.1/DTD/svg11.dtd">
<svg version="1.1" id="dollar-filled" xmlns="http://www.w3.org/2000/svg" xmlns:xlink="http://www.w3.org/1999/xlink" x="0px"
	 y="0px" width="52px" height="52px" viewBox="0 0 52 52" enable-background="new 0 0 52 52" xml:space="preserve">
<path id="dollar-filled_1_" d="M25.999939,1.999939C12.745178,1.999939,2,12.745056,2,26
	c0,13.254761,10.745178,24.000061,23.999939,24.000061C39.254883,50.000061,50,39.254761,50,26
	C50,12.745056,39.254883,1.999939,25.999939,1.999939z M27.5,37.218445V39.5c0,0.828125-0.671875,1.5-1.5,1.5s-1.5-0.671875-1.5-1.5
	v-2.355835c-3.403015-0.507141-5.996338-2.498413-7.088867-5.558228l-0.052734-0.147461l0.01825-0.007568
	c-0.049805-0.144043-0.08252-0.296143-0.08252-0.457092c0-0.776672,0.629578-1.40625,1.40625-1.40625
	c0.633484,0,1.162842,0.421753,1.338806,0.997681c1.116516,2.738159,3.245972,4.129089,6.333862,4.129089
	c3.254883,0,5.198242-1.258789,5.198242-3.367188c0-2.068359-1.266602-3.040039-5.648438-4.329102
	c-4.535156-1.29248-7.746094-2.51123-7.746094-6.440918c0-3.058533,2.596252-5.352417,6.323242-5.766418V12.5
	c0-0.828613,0.671875-1.5,1.5-1.5s1.5,0.671387,1.5,1.5v2.361206c3.042358,0.456055,5.311707,2.096985,6.46582,4.761841
	l0.061523,0.141113l-0.007629,0.003967c0.069641,0.1651,0.108276,0.346497,0.108276,0.536987
	c0,0.763855-0.619202,1.383057-1.383057,1.383057c-0.493713,0-0.923889-0.26062-1.168579-0.649841l-0.007996,0.00415
	l-0.073242-0.15332c-1.158203-2.405273-3.001953-3.525391-5.804688-3.525391c-2.725586,0-4.486328,1.173828-4.486328,2.990234
	c0,2.135254,1.334961,2.853516,5.928711,4.213867c4.727539,1.363281,7.46582,2.878418,7.46582,6.586426
	C34.598633,34.446594,31.735535,36.825745,27.5,37.218445z"/>
</svg>
