<?xml version="1.0" encoding="utf-8"?>
<!-- Generator: Adobe Illustrator 18.0.0, SVG Export Plug-In . SVG Version: 6.00 Build 0)  -->
<!DOCTYPE svg PUBLIC "-//W3C//DTD SVG 1.1//EN" "http://www.w3.org/Graphics/SVG/1.1/DTD/svg11.dtd">
<svg version="1.1" id="dollar" xmlns="http://www.w3.org/2000/svg" xmlns:xlink="http://www.w3.org/1999/xlink" x="0px" y="0px"
	 width="52px" height="52px" viewBox="0 0 52 52" enable-background="new 0 0 52 52" xml:space="preserve">
<g id="dollar_1_">
	<path d="M25.999939,1.999939C12.745117,1.999939,2,12.745056,2,26c0,13.254761,10.745117,24.000061,23.999939,24.000061
		C39.254883,50.000061,50,39.254761,50,26C50,12.745056,39.254883,1.999939,25.999939,1.999939z M25.999939,47.000061
		C14.420532,47.000061,5,37.579468,5,26S14.420532,4.999939,25.999939,4.999939C37.579407,4.999939,47,14.420532,47,26
		S37.579407,47.000061,25.999939,47.000061z"/>
	<path d="M27.132812,24.567871c-4.59375-1.360352-5.928711-2.078613-5.928711-4.213867
		c0-1.816406,1.760742-2.990234,4.486328-2.990234c2.802734,0,4.646484,1.120117,5.804688,3.525391l0.073242,0.15332
		l0.007996-0.00415c0.24469,0.389221,0.674866,0.649841,1.168579,0.649841c0.763855,0,1.383057-0.619202,1.383057-1.383057
		c0-0.190491-0.038635-0.371887-0.108276-0.536987l0.007629-0.003967l-0.061523-0.141113
		c-1.154114-2.664856-3.423462-4.305786-6.46582-4.761841V12.5c0-0.828613-0.671875-1.5-1.5-1.5s-1.5,0.671387-1.5,1.5v2.29071
		c-3.72699,0.414001-6.323242,2.707886-6.323242,5.766418c0,3.929688,3.210938,5.148438,7.746094,6.440918
		c4.381836,1.289062,5.648438,2.260742,5.648438,4.329102c0,2.108398-1.943359,3.367188-5.198242,3.367188
		c-3.087891,0-5.217346-1.39093-6.333862-4.129089c-0.175964-0.575928-0.705322-0.997681-1.338806-0.997681
		c-0.776672,0-1.40625,0.629578-1.40625,1.40625c0,0.16095,0.032715,0.313049,0.08252,0.457092l-0.01825,0.007568l0.052734,0.147461
		c1.092529,3.059814,3.685852,5.051086,7.088867,5.558228V39.5c0,0.828125,0.671875,1.5,1.5,1.5s1.5-0.671875,1.5-1.5v-2.281555
		c4.235535-0.3927,7.098633-2.771851,7.098633-6.064148C34.598633,27.446289,31.860352,25.931152,27.132812,24.567871z"/>
</g>
</svg>
