<?xml version="1.0" encoding="utf-8"?>
<!-- Generator: Adobe Illustrator 18.0.0, SVG Export Plug-In . SVG Version: 6.00 Build 0)  -->
<!DOCTYPE svg PUBLIC "-//W3C//DTD SVG 1.1//EN" "http://www.w3.org/Graphics/SVG/1.1/DTD/svg11.dtd">
<svg version="1.1" id="email-filled" xmlns="http://www.w3.org/2000/svg" xmlns:xlink="http://www.w3.org/1999/xlink" x="0px"
	 y="0px" width="52px" height="52px" viewBox="0 0 52 52" enable-background="new 0 0 52 52" xml:space="preserve">
<g id="email-filled_1_">
	<path d="M26.04199,29.675779L47.643372,8.07391C47.43549,8.02789,47.221191,8,47,8H5C4.80298,8,4.61096,8.02173,4.42426,8.05847
		L26.04199,29.675779z"/>
	<path d="M27.102539,32.857422c-0.292971,0.292969-0.67676,0.439449-1.060551,0.439449s-0.76758-0.146481-1.060551-0.439449
		L2.17059,10.047C2.06824,10.34833,2,10.66522,2,11v30c0,1.64996,1.34998,3,3,3h42c1.650021,0,3-1.35004,3-3V11
		c0-0.31158-0.061649-0.60663-0.150822-0.88971L27.102539,32.857422z"/>
</g>
</svg>
