<?xml version="1.0" encoding="utf-8"?>
<!-- Generator: Adobe Illustrator 18.0.0, SVG Export Plug-In . SVG Version: 6.00 Build 0)  -->
<!DOCTYPE svg PUBLIC "-//W3C//DTD SVG 1.1//EN" "http://www.w3.org/Graphics/SVG/1.1/DTD/svg11.dtd">
<svg version="1.1" id="fraud-protection-filled" xmlns="http://www.w3.org/2000/svg" xmlns:xlink="http://www.w3.org/1999/xlink"
	 x="0px" y="0px" width="52px" height="52px" viewBox="0 0 52 52" enable-background="new 0 0 52 52" xml:space="preserve">
<g id="fraud-protection-filled_1_">
	<path d="M12.02734,10.52197c0.08691-0.05566,8.849609-5.66016,19.03418,0.0542c0.23242,0.13037,0.484381,0.19238,0.7334,0.19238
		c0.524408-0.00049,1.034182-0.27637,1.309568-0.7666c0.40527-0.72266,0.147461-1.63672-0.574219-2.04199
		c-11.762699-6.59814-21.730471-0.2207-22.14941,0.0542c-0.69238,0.4541-0.88574,1.38428-0.43066,2.07666
		C10.40527,10.78418,11.33594,10.97559,12.02734,10.52197z"/>
	<path d="M5.65039,21.216311c0.25977,0.178221,0.55566,0.26367,0.84863,0.26367c0.47656,0,0.94629-0.227539,1.2373-0.650391
		c0.0498-0.072269,5.05371-7.24854,13.626949-6.832029c0.00098,0,0.00098,0,0.00098,0c0.08984,0,4.59277,0.02148,8.8291,2.321779
		c0.727541,0.394529,1.63965,0.125,2.034182-0.60254c0.395512-0.72803,0.125-1.63867-0.602539-2.03418
		c-4.956051-2.68994-10.07715-2.680181-10.19824-2.68359c-10.11914-0.45996-15.9209,7.77979-16.16309,8.131349
		C4.79492,19.81348,4.96777,20.74707,5.65039,21.216311z"/>
	<path d="M14.13672,22.603029c0.05469-0.042971,5.614261-4.26123,11.983401-1.651369
		c0.76465,0.313959,1.643551-0.052731,1.956051-0.81934c0.314449-0.7666-0.052731-1.64258-0.81934-1.957029
		c-7.943359-3.2583-14.67383,1.83691-15.01074,2.099119C3.57226,27.658199,5.12695,37.541012,5.19726,37.958
		c0.12402,0.731449,0.75781,1.248051,1.47656,1.248051c0.08203,0,0.16406-0.00684,0.24805-0.020512
		c0.81543-0.134769,1.36719-0.90723,1.23438-1.72266C8.09961,37.112301,6.84766,28.80957,14.13672,22.603029z"/>
	<path d="M23.523439,24.68066c0.09375-0.82324-0.49707-1.56641-1.320311-1.66016c-0.522461-0.05957-0.83984-0.06201-0.83984-0.06201
		c-0.07715-0.00635-0.14941,0.00391-0.21875,0.01318c-7.070311,0.94873-8.94629,6.62598-8.99414,6.786131
		c-2.61816,6.863281,1.66309,15.736332,1.84668,16.110348c0.26074,0.53125,0.79297,0.83984,1.34766,0.83984
		c0.22168,0,0.44727-0.048828,0.659181-0.15332c0.744141-0.364262,1.05176-1.262699,0.68652-2.00684
		c-0.039061-0.080078-3.89551-8.06348-1.70898-13.802731c0.0127-0.041019,1.33594-4.037109,6.437501-4.782711
		c0.09375,0.005369,0.24707,0.016109,0.44434,0.03857C22.68457,26.098141,23.429689,25.50293,23.523439,24.68066z"/>
	<path d="M20.008789,30.504881c-0.730471-0.386721-1.63867-0.112301-2.02832,0.620119
		c-2.007811,3.775391-0.208981,9.107422-0.130859,9.332031c0.213869,0.62109,0.79492,1.010738,1.41699,1.010738
		c0.161131,0,0.325199-0.026371,0.487301-0.081051c0.78223-0.268551,1.199221-1.12109,0.932619-1.904301
		c-0.40723-1.196289-1.212891-4.776371-0.057619-6.949219C21.01758,31.80176,20.740231,30.893551,20.008789,30.504881z"/>
	<path d="M44,26h-3v-2.99268c0-3.30859-2.69141-6-6-6s-6,2.69141-6,6V26h-3c-1.650021,0-3,1.349979-3,3v15c0,1.64996,1.349979,3,3,3
		h18c1.650021,0,3-1.35004,3-3V29C47,27.349979,45.650021,26,44,26z M32,23.00732c0-1.654301,1.345699-3,3-3s3,1.345699,3,3v2.98584
		h-6V23.00732z M36.5,35.91608V39.5c0,0.828121-0.671879,1.5-1.5,1.5s-1.5-0.671879-1.5-1.5v-3.58392
		c-0.457211-0.411869-0.75-1.002319-0.75-1.66608c0-1.24268,1.007389-2.25,2.25-2.25s2.25,1.00732,2.25,2.25
		C37.25,34.913761,36.957211,35.504211,36.5,35.91608z"/>
</g>
</svg>
