<?xml version="1.0" encoding="utf-8"?>
<!-- Generator: Adobe Illustrator 18.0.0, SVG Export Plug-In . SVG Version: 6.00 Build 0)  -->
<!DOCTYPE svg PUBLIC "-//W3C//DTD SVG 1.1//EN" "http://www.w3.org/Graphics/SVG/1.1/DTD/svg11.dtd">
<svg version="1.1" id="download" xmlns="http://www.w3.org/2000/svg" xmlns:xlink="http://www.w3.org/1999/xlink" x="0px" y="0px"
	 width="52px" height="52px" viewBox="0 0 52 52" enable-background="new 0 0 52 52" xml:space="preserve">
<g id="download_1_">
	<path d="M24.939449,36.56348C25.23242,36.856449,25.616209,37.00293,26,37.00293s0.76758-0.146481,1.060551-0.439449l11-11
		c0.585941-0.585449,0.585941-1.535641,0-2.12109c-0.585941-0.585939-1.53516-0.585939-2.12109,0L27.5,31.88184V11.5
		c0-0.82861-0.671881-1.5-1.5-1.5s-1.5,0.67139-1.5,1.5v20.38184l-8.439449-8.439449c-0.58594-0.585939-1.53516-0.585939-2.12109,0
		c-0.58594,0.585449-0.58594,1.535641,0,2.12109L24.939449,36.56348z"/>
	<path d="M45.5,34c-0.82843,0-1.5,0.67157-1.5,1.5h-0.002319L43.99609,43H8v-7.5C8,34.67157,7.32843,34,6.5,34S5,34.67157,5,35.5V43
		c0,1.654301,1.3457,3,3,3h36c1.654301,0,3-1.345699,3-3v-7.5C47,34.67157,46.32843,34,45.5,34z"/>
</g>
</svg>
