<?xml version="1.0" encoding="utf-8"?>
<!-- Generator: Adobe Illustrator 18.0.0, SVG Export Plug-In . SVG Version: 6.00 Build 0)  -->
<!DOCTYPE svg PUBLIC "-//W3C//DTD SVG 1.1//EN" "http://www.w3.org/Graphics/SVG/1.1/DTD/svg11.dtd">
<svg version="1.1" id="email" xmlns="http://www.w3.org/2000/svg" xmlns:xlink="http://www.w3.org/1999/xlink" x="0px" y="0px"
	 width="52px" height="52px" viewBox="0 0 52 52" enable-background="new 0 0 52 52" xml:space="preserve">
<path id="email_1_" d="M47,8H5c-1.65002,0-3,1.34998-3,3v30c0,1.64996,1.34998,3,3,3h42c1.650021,0,3-1.35004,3-3V11
	C50,9.34998,48.650021,8,47,8z M26,29.542971L7.45654,11h37.08643L26,29.542971z M5,41V12.78564l19.939449,19.938961
	C25.23242,33.01757,25.616209,33.164051,26,33.164051s0.76758-0.146481,1.060551-0.439449L47,12.78516V41H5z"/>
</svg>
