<?xml version="1.0" encoding="utf-8"?>
<!-- Generator: Adobe Illustrator 18.0.0, SVG Export Plug-In . SVG Version: 6.00 Build 0)  -->
<!DOCTYPE svg PUBLIC "-//W3C//DTD SVG 1.1//EN" "http://www.w3.org/Graphics/SVG/1.1/DTD/svg11.dtd">
<svg version="1.1" id="gas-station-filled" xmlns="http://www.w3.org/2000/svg" xmlns:xlink="http://www.w3.org/1999/xlink" x="0px"
	 y="0px" width="52px" height="52px" viewBox="0 0 52 52" enable-background="new 0 0 52 52" xml:space="preserve">
<path id="gas-station-filled_1_" d="M41,21.5c0-0.828613-0.671875-1.5-1.5-1.5H35V8c0-1.650024-1.349976-3-3-3H11
	C9.349976,5,8,6.349976,8,8v36H6.5C5.671387,44,5,44.671875,5,45.5S5.671387,47,6.5,47H11h21h4.5c0.828125,0,1.5-0.671875,1.5-1.5
	S37.328125,44,36.5,44H35V23h3.000671l0.009094,12.962891c0,2.802734,2.322266,4.537109,4.474609,4.537109
	C44.65625,40.5,47,38.78125,47,36.004883V15c0-2.813965-1.597656-7-6-7h-1.5C38.671875,8,38,8.671387,38,9.5s0.671875,1.5,1.5,1.5
	H41c2.96582,0,3,3.959961,3,4v21.004883C44,37.061523,43.012695,37.5,42.484375,37.5
	c-0.514648,0-1.474609-0.451172-1.474609-1.538086L41,21.999023V21.5z M15.5,14.424988c0-1.099976,0.900024-2,2-2h8
	c1.099976,0,2,0.900024,2,2v5.150024c0,1.099976-0.900024,2-2,2h-8c-1.099976,0-2-0.900024-2-2V14.424988z"/>
</svg>
