<?xml version="1.0" encoding="utf-8"?>
<!-- Generator: Adobe Illustrator 18.0.0, SVG Export Plug-In . SVG Version: 6.00 Build 0)  -->
<!DOCTYPE svg PUBLIC "-//W3C//DTD SVG 1.1//EN" "http://www.w3.org/Graphics/SVG/1.1/DTD/svg11.dtd">
<svg version="1.1" id="fraud-protection" xmlns="http://www.w3.org/2000/svg" xmlns:xlink="http://www.w3.org/1999/xlink" x="0px"
	 y="0px" width="52px" height="52px" viewBox="0 0 52 52" enable-background="new 0 0 52 52" xml:space="preserve">
<g id="fraud-protection_1_">
	<path d="M12.02686,10.52197c0.08789-0.05566,8.850101-5.66016,19.034672,0.0542c0.23242,0.13037,0.484381,0.19238,0.7334,0.19238
		c0.524408-0.00049,1.034182-0.27637,1.309568-0.7666c0.40527-0.72266,0.147461-1.63672-0.574219-2.04199
		c-11.762699-6.59814-21.730471-0.2207-22.14893,0.0542c-0.69287,0.4541-0.88574,1.38428-0.43115,2.07666
		C10.40527,10.78271,11.33496,10.97705,12.02686,10.52197z"/>
	<path d="M5.65039,21.216311c0.25977,0.178221,0.55566,0.26367,0.84814,0.26367c0.47754,0,0.94678-0.227539,1.23779-0.650391
		c0.0498-0.072269,5.04541-7.24854,13.626949-6.832029c0.00098,0,0.00098,0,0.00098,0c0.08984,0,4.59277,0.02148,8.8291,2.321779
		c0.727541,0.394529,1.63867,0.125,2.034182-0.60254c0.395512-0.72803,0.125-1.63867-0.602539-2.03418
		c-4.956051-2.68994-10.0791-2.680181-10.19824-2.68359C11.3081,10.53907,5.50536,18.77882,5.26366,19.130381
		C4.79443,19.81348,4.96777,20.74707,5.65039,21.216311z"/>
	<path d="M14.13672,22.603029c0.05566-0.042971,5.61328-4.26123,11.983401-1.651369
		c0.76465,0.313959,1.643551-0.052731,1.956051-0.81934c0.314449-0.7666-0.052731-1.64258-0.81934-1.957029
		c-7.943359-3.2583-14.67383,1.83691-15.01025,2.099119C3.57275,27.658199,5.12793,37.541012,5.19824,37.958
		c0.12354,0.732422,0.7583,1.25,1.47705,1.25c0.08301,0,0.16748-0.00684,0.25195-0.020512
		c0.81689-0.138672,1.36719-0.912109,1.229-1.729488C8.14209,37.373051,6.80029,28.85059,14.13672,22.603029z"/>
	<path d="M23.523439,24.68066c0.09375-0.82324-0.49707-1.56641-1.320311-1.66016c-0.522461-0.05957-0.83984-0.06201-0.83984-0.06201
		c-0.070311-0.00635-0.14941,0.00391-0.21875,0.01318c-7.070311,0.94873-8.9458,6.62598-8.99365,6.78516
		c-2.61963,6.86426,1.6626,15.737299,1.846189,16.11133c0.26025,0.53125,0.79297,0.83984,1.34668,0.83984
		c0.22168,0,0.44629-0.049801,0.65918-0.15332c0.74316-0.363281,1.05176-1.261719,0.68848-2.005859
		c-0.039061-0.080078-3.88965-8.083981-1.70898-13.803711c0.0127-0.041019,1.33496-4.037109,6.436521-4.782711
		c0.09375,0.005369,0.24707,0.016109,0.44434,0.03857C22.682619,26.098141,23.429689,25.50293,23.523439,24.68066z"/>
	<path d="M20.008789,30.504881c-0.72949-0.386721-1.63867-0.112301-2.02832,0.620119
		c-2.007811,3.775391-0.208981,9.107422-0.130859,9.332031c0.213869,0.62109,0.79492,1.010738,1.41699,1.010738
		c0.161131,0,0.325199-0.026371,0.487301-0.081051c0.78223-0.268551,1.199221-1.12109,0.932619-1.904301
		c-0.40723-1.196289-1.212891-4.776371-0.057619-6.949219C21.01758,31.80176,20.740231,30.893551,20.008789,30.504881z"/>
	<path d="M44,26h-3v-2.99268c0-3.30859-2.69141-6-6-6s-6,2.69141-6,6V26h-3c-1.650021,0-3,1.349979-3,3v15c0,1.64996,1.349979,3,3,3
		h18c1.650021,0,3-1.35004,3-3V29C47,27.349979,45.650021,26,44,26z M32,23.00732c0-1.654301,1.345699-3,3-3s3,1.345699,3,3v2.98584
		h-6V23.00732z M44,44H26V29h18V44z"/>
	<path d="M33.5,35.91608V39.5c0,0.828121,0.671879,1.5,1.5,1.5s1.5-0.671879,1.5-1.5v-3.58392
		c0.457211-0.411869,0.75-1.002319,0.75-1.66608c0-1.24268-1.007389-2.25-2.25-2.25s-2.25,1.00732-2.25,2.25
		C32.75,34.913761,33.042789,35.504211,33.5,35.91608z"/>
</g>
</svg>
