<?xml version="1.0" encoding="utf-8"?>
<!-- Generator: Adobe Illustrator 18.0.0, SVG Export Plug-In . SVG Version: 6.00 Build 0)  -->
<!DOCTYPE svg PUBLIC "-//W3C//DTD SVG 1.1//EN" "http://www.w3.org/Graphics/SVG/1.1/DTD/svg11.dtd">
<svg version="1.1" id="edit-filled" xmlns="http://www.w3.org/2000/svg" xmlns:xlink="http://www.w3.org/1999/xlink" x="0px"
	 y="0px" width="52px" height="52px" viewBox="0 0 52 52" enable-background="new 0 0 52 52" xml:space="preserve">
<g id="edit-filled_1_">
	<path d="M33.114498,10.37585L8.18164,35.30957c-0.18066,0.179691-0.31152,0.40332-0.38184,0.648441L5.25,44.87402
		C5.10059,45.396481,5.24512,45.958,5.62891,46.34375c0.28516,0.287109,0.66992,0.442379,1.06348,0.442379
		c0.13477,0,0.27051-0.018551,0.4043-0.05566l8.95996-2.505859c0.248051-0.06934,0.473631-0.201172,0.65625-0.383789
		L41.645809,18.9079L33.114498,10.37585z"/>
	<path d="M45.93066,10.37988l-4.289059-4.28906c-1.130859-1.13086-3.111328-1.13086-4.242191,0l-2.163879,2.16394l8.531368,8.532041
		l2.163761-2.16376c0.56543-0.56543,0.87793-1.318851,0.87793-2.12158C46.80859,11.69824,46.49609,10.94482,45.93066,10.37988z"/>
</g>
</svg>
