<?xml version="1.0" encoding="utf-8"?>
<!-- Generator: Adobe Illustrator 18.0.0, SVG Export Plug-In . SVG Version: 6.00 Build 0)  -->
<!DOCTYPE svg PUBLIC "-//W3C//DTD SVG 1.1//EN" "http://www.w3.org/Graphics/SVG/1.1/DTD/svg11.dtd">
<svg version="1.1" id="entertainment-filled" xmlns="http://www.w3.org/2000/svg" xmlns:xlink="http://www.w3.org/1999/xlink"
	 x="0px" y="0px" width="52px" height="52px" viewBox="0 0 52 52" enable-background="new 0 0 52 52" xml:space="preserve">
<path id="entertainment-filled_1_" d="M48.273861,18.57538l-5.30328-5.30328c-0.585819,0.58575-1.35358,0.87866-2.121342,0.87866
	s-1.535519-0.29291-2.121342-0.87866c-1.17157-1.17157-1.17157-3.07111,0-4.24268l-5.30328-5.30328
	c-0.58337-0.58337-1.35236-0.87506-2.12134-0.87506s-1.537901,0.29169-2.121281,0.87506L3.72614,29.18195
	c-1.16675,1.16675-1.16675,3.075932,0,4.24268l5.30328,5.30328c0.58582-0.585819,1.35358-0.878658,2.12134-0.878658
	s1.53552,0.29285,2.12134,0.878658c1.17157,1.17157,1.17157,3.071041,0,4.242611l5.303279,5.303341
	c0.58337,0.583309,1.35236,0.875,2.12134,0.875s1.53796-0.29163,2.121281-0.875l25.45587-25.45587
	C49.440609,21.651251,49.440552,19.742069,48.273861,18.57538z M14.33301,29.181641
	c-0.29297,0.292971-0.67676,0.439449-1.06055,0.439449s-0.76758-0.146481-1.06055-0.439449l-2.12207-2.12109l2.12109-2.12158
	l2.12207,2.12158C14.91895,27.64551,14.91895,28.595699,14.33301,29.181641z M20.696289,35.545898
	c-0.292971,0.292969-0.67676,0.439449-1.060551,0.439449s-0.76758-0.146481-1.060551-0.439449l-2.12109-2.121101
	c-0.58594-0.585941-0.58594-1.53516,0-2.12109c0.585939-0.58593,1.53516-0.585939,2.12109,0l2.12109,2.12109
	C21.28223,34.010738,21.28223,34.959961,20.696289,35.545898z M24.939449,41.91016l-2.12109-2.12207
	c-0.585939-0.585941-0.585939-1.536129,0-2.12109c0.585939-0.585941,1.53516-0.585941,2.12109,0l2.12109,2.12207L24.939449,41.91016
	z"/>
</svg>
