<?xml version="1.0" encoding="utf-8"?>
<!-- Generator: Adobe Illustrator 18.0.0, SVG Export Plug-In . SVG Version: 6.00 Build 0)  -->
<!DOCTYPE svg PUBLIC "-//W3C//DTD SVG 1.1//EN" "http://www.w3.org/Graphics/SVG/1.1/DTD/svg11.dtd">
<svg version="1.1" id="laptop" xmlns="http://www.w3.org/2000/svg" xmlns:xlink="http://www.w3.org/1999/xlink" x="0px" y="0px"
	 width="52px" height="52px" viewBox="0 0 52 52" enable-background="new 0 0 52 52" xml:space="preserve">
<g id="laptop_1_">
	<path d="M9.47858,38.495541h33c1.650021,0,3-1.349979,3-3v-24c0-1.64996-1.349979-3-3-3h-33c-1.64996,0-3,1.35004-3,3v24
		C6.47858,37.145569,7.82861,38.495541,9.47858,38.495541z M9.47858,11.49554h33v24h-33V11.49554z"/>
	<path d="M48.861389,40.50177l-10.330872,0.000549H13.46948L3.13861,40.50177c-0.61353,0-1.11096,0.497379-1.11096,1.110962
		c-0.00006,0.368469,0.19122,0.67926,0.46747,0.881351c0,0,1.78796,0.84729,2.57117,1.010311h19.9613h1.944759h19.961298
		c0.783199-0.163021,2.571171-1.010311,2.571171-1.010311c0.276249-0.202091,0.467529-0.512878,0.467529-0.881351
		C49.972351,40.999149,49.474911,40.50177,48.861389,40.50177z"/>
</g>
</svg>
