<?xml version="1.0" encoding="utf-8"?>
<!-- Generator: Adobe Illustrator 18.0.0, SVG Export Plug-In . SVG Version: 6.00 Build 0)  -->
<!DOCTYPE svg PUBLIC "-//W3C//DTD SVG 1.1//EN" "http://www.w3.org/Graphics/SVG/1.1/DTD/svg11.dtd">
<svg version="1.1" id="grocery" xmlns="http://www.w3.org/2000/svg" xmlns:xlink="http://www.w3.org/1999/xlink" x="0px" y="0px"
	 width="52px" height="52px" viewBox="0 0 52 52" enable-background="new 0 0 52 52" xml:space="preserve">
<path id="grocery_1_" d="M48.5,20H44h-7.275879L30.29883,8.87061c-0.41309-0.71875-1.33301-0.9629-2.04883-0.54883
	c-0.71777,0.41406-0.962891,1.33154-0.54883,2.04883L33.260502,20h-14.521l5.55933-9.62939
	c0.414061-0.71729,0.168949-1.63477-0.54883-2.04883c-0.71582-0.41406-1.634769-0.16895-2.04883,0.54883L15.27588,20H8H3.5
	C2.67139,20,2,20.671391,2,21.5S2.67139,23,3.5,23h1.40625l0.20916,0.82416l5.142879,17.999998
	C10.62628,43.112061,11.80341,44,13.14288,44h25.71423c1.339481,0,2.516602-0.887939,2.884579-2.175838l5.142879-18L47.125,23H48.5
	c0.828121,0,1.5-0.671391,1.5-1.5S49.328121,20,48.5,20z M21,30.5V23h10v7.5H21z M31,33.5V41H21v-7.5H31z M18,23v7.5h-7.857121L8,23
	H18z M11,33.5h7V41h-4.857121L11,33.5z M34,41v-7.5h7L38.857121,41H34z M41.857121,30.5H34V23h10L41.857121,30.5z"/>
</svg>
