<?xml version="1.0" encoding="utf-8"?>
<!-- Generator: Adobe Illustrator 18.0.0, SVG Export Plug-In . SVG Version: 6.00 Build 0)  -->
<!DOCTYPE svg PUBLIC "-//W3C//DTD SVG 1.1//EN" "http://www.w3.org/Graphics/SVG/1.1/DTD/svg11.dtd">
<svg version="1.1" id="home" xmlns="http://www.w3.org/2000/svg" xmlns:xlink="http://www.w3.org/1999/xlink" x="0px" y="0px"
	 width="52px" height="52px" viewBox="0 0 52 52" enable-background="new 0 0 52 52" xml:space="preserve">
<path id="home_1_" d="M46.24316,24.959471L27.761721,5.76465C26.875,4.79199,25.09668,4.82422,24.26856,5.73438L5.72705,24.990721
	c-0.63379,0.697269-0.79785,1.7041-0.41602,2.56885c0.38281,0.86035,1.2373,1.416019,2.17725,1.416019H12v15.658199
	c0,1.31348,1.06836,2.38184,2.38135,2.38184H21.5c0.828119,0,1.5-0.671879,1.5-1.5h0.002319L23.00391,38H29v7.515621
	c0,0.828121,0.671881,1.5,1.5,1.5h7.11816c1.31348,0,2.38184-1.068359,2.38184-2.38184V28.975582h4.511719
	c0.94043,0,1.794922-0.55566,2.179691-1.421881C47.070309,26.691891,46.90625,25.685551,46.24316,24.959471z M38.5,25.97559
	c-0.828121,0-1.5,0.671391-1.5,1.5v16.540039h-5V38c0-1.654301-1.345699-3-3-3h-6c-1.654301,0-3,1.345699-3,3v6.015621h-5V27.47559
	c0-0.828609-0.67139-1.5-1.5-1.5H8.94287L26,8.26025l17.057617,17.71533C43.057621,25.97558,38.5,25.97558,38.5,25.97559z"/>
</svg>
