<?xml version="1.0" encoding="utf-8"?>
<!-- Generator: Adobe Illustrator 18.0.0, SVG Export Plug-In . SVG Version: 6.00 Build 0)  -->
<!DOCTYPE svg PUBLIC "-//W3C//DTD SVG 1.1//EN" "http://www.w3.org/Graphics/SVG/1.1/DTD/svg11.dtd">
<svg version="1.1" id="location-filled" xmlns="http://www.w3.org/2000/svg" xmlns:xlink="http://www.w3.org/1999/xlink" x="0px"
	 y="0px" width="52px" height="52px" viewBox="0 0 52 52" enable-background="new 0 0 52 52" xml:space="preserve">
<path id="location-filled_1_" d="M26,2C16.07477,2,8,10.1972,8,20.272949c0,9.24066,14.07526,26.672058,15.68018,28.629272
	C24.25,49.597111,25.10132,50,26,50c0.898621,0,1.749941-0.402889,2.319759-1.097778C29.92474,46.945011,44,29.513611,44,20.272949
	C44,10.1972,35.925228,2,26,2z M26,26c-3.308411,0-6-2.691589-6-6s2.691589-6,6-6s6,2.691589,6,6S29.308411,26,26,26z"/>
</svg>
