<?xml version="1.0" encoding="utf-8"?>
<!-- Generator: Adobe Illustrator 18.0.0, SVG Export Plug-In . SVG Version: 6.00 Build 0)  -->
<!DOCTYPE svg PUBLIC "-//W3C//DTD SVG 1.1//EN" "http://www.w3.org/Graphics/SVG/1.1/DTD/svg11.dtd">
<svg version="1.1" id="laptop-filled" xmlns="http://www.w3.org/2000/svg" xmlns:xlink="http://www.w3.org/1999/xlink" x="0px"
	 y="0px" width="52px" height="52px" viewBox="0 0 52 52" enable-background="new 0 0 52 52" xml:space="preserve">
<g id="laptop-filled_1_">
	<path d="M9.5,38h33c1.650024,0,3-1.350037,3-3V11c0-1.650024-1.349976-3-3-3h-33c-1.650024,0-3,1.349976-3,3v24
		C6.5,36.649963,7.849976,38,9.5,38z"/>
	<path d="M38.551941,40.006775l10.330872-0.000549c0.613525,0,1.110962,0.497375,1.110962,1.110962
		c0,0.368469-0.191284,0.67926-0.467529,0.881348c0,0-1.787964,0.84729-2.571167,1.010315H5.087708
		c-0.783203-0.163025-2.571167-1.010315-2.571167-1.010315c-0.276245-0.202087-0.467529-0.512878-0.467529-0.881348
		c0-0.613586,0.497437-1.110962,1.110962-1.110962l10.330872,0.000549H38.551941z"/>
</g>
</svg>
