<?xml version="1.0" encoding="utf-8"?>
<!-- Generator: Adobe Illustrator 18.0.0, SVG Export Plug-In . SVG Version: 6.00 Build 0)  -->
<!DOCTYPE svg PUBLIC "-//W3C//DTD SVG 1.1//EN" "http://www.w3.org/Graphics/SVG/1.1/DTD/svg11.dtd">
<svg version="1.1" id="help" xmlns="http://www.w3.org/2000/svg" xmlns:xlink="http://www.w3.org/1999/xlink" x="0px" y="0px"
	 width="52px" height="52px" viewBox="0 0 52 52" enable-background="new 0 0 52 52" xml:space="preserve">
<g id="help_1_">
	<path fill="none" d="M26,5C14.420532,5,5,14.420532,5,26c0,11.579407,9.420532,21,21,21s21-9.420593,21-21
		C47,14.420532,37.579468,5,26,5z M25.799988,38c-0.966492,0-1.75-0.783508-1.75-1.75s0.783508-1.75,1.75-1.75
		s1.75,0.783508,1.75,1.75S26.766479,38,25.799988,38z M27.350586,27.752625v2.726868c0,0.828125-0.671875,1.5-1.5,1.5
		s-1.5-0.671875-1.5-1.5v-4.091309c0-0.828613,0.671875-1.5,1.5-1.5c0.001038,0,0.002075,0.000305,0.003113,0.000305
		c0.04248-0.003723,0.083313-0.012939,0.12677-0.013C28.472656,24.870605,30.5,23.108887,30.5,20.94873
		c0-2.165527-2.032227-3.927734-4.530273-3.927734c-2.327148,0-4.251953,1.526855-4.479492,3.552246
		c-0.09082,0.823242-0.833008,1.413086-1.657227,1.32373c-0.823242-0.092285-1.416016-0.834473-1.323242-1.657715
		c0.396484-3.544922,3.603516-6.218262,7.459961-6.218262c4.152344,0,7.530273,3.10791,7.530273,6.927734
		C33.5,24.33075,30.844055,27.15332,27.350586,27.752625z"/>
	<path d="M26,2C12.745178,2,2,12.745178,2,26s10.745178,24,24,24s24-10.745178,24-24S39.254822,2,26,2z M26,47
		C14.420532,47,5,37.579407,5,26C5,14.420532,14.420532,5,26,5s21,9.420532,21,21C47,37.579407,37.579468,47,26,47z"/>
	<circle cx="25.799988" cy="36.25" r="1.75"/>
	<path d="M25.969727,14.020996c-3.856445,0-7.063477,2.67334-7.459961,6.218262c-0.092773,0.823242,0.5,1.56543,1.323242,1.657715
		c0.824219,0.089355,1.566406-0.500488,1.657227-1.32373c0.227539-2.025391,2.152344-3.552246,4.479492-3.552246
		c2.498047,0,4.530273,1.762207,4.530273,3.927734c0,2.160156-2.027344,3.921875-4.519531,3.926758
		c-0.043457,0.000061-0.08429,0.009277-0.12677,0.013c-0.001038,0-0.002075-0.000305-0.003113-0.000305
		c-0.828125,0-1.5,0.671387-1.5,1.5v4.091309c0,0.828125,0.671875,1.5,1.5,1.5s1.5-0.671875,1.5-1.5v-2.726868
		C30.844055,27.15332,33.5,24.33075,33.5,20.94873C33.5,17.128906,30.12207,14.020996,25.969727,14.020996z"/>
</g>
</svg>
