<?xml version="1.0" encoding="utf-8"?>
<!-- Generator: Adobe Illustrator 18.0.0, SVG Export Plug-In . SVG Version: 6.00 Build 0)  -->
<!DOCTYPE svg PUBLIC "-//W3C//DTD SVG 1.1//EN" "http://www.w3.org/Graphics/SVG/1.1/DTD/svg11.dtd">
<svg version="1.1" id="help-filled" xmlns="http://www.w3.org/2000/svg" xmlns:xlink="http://www.w3.org/1999/xlink" x="0px"
	 y="0px" width="52px" height="52px" viewBox="0 0 52 52" enable-background="new 0 0 52 52" xml:space="preserve">
<path id="help-filled_1_" d="M26,2C12.74518,2,2,12.74518,2,26s10.74518,24,24,24s24-10.745178,24-24S39.254822,2,26,2z
	 M25.79999,38c-0.96649,0-1.75-0.783508-1.75-1.75s0.78351-1.75,1.75-1.75s1.75,0.783508,1.75,1.75S26.766479,38,25.79999,38z
	 M27.35059,27.752621v2.72687c0,0.828119-0.671881,1.5-1.5,1.5s-1.5-0.671881-1.5-1.5V26.38818c0-0.828609,0.671881-1.5,1.5-1.5
	c0.00104,0,0.002081,0.000311,0.003111,0.000311c0.04248-0.003719,0.083309-0.012939,0.12677-0.013
	C28.47266,24.870609,30.5,23.108891,30.5,20.94873c0-2.165529-2.03223-3.927731-4.53027-3.927731
	c-2.32715,0-4.251949,1.526859-4.47949,3.55225c-0.09082,0.82324-0.83301,1.41309-1.65723,1.32373
	c-0.82324-0.092291-1.416019-0.834471-1.32324-1.657709c0.396481-3.54492,3.603519-6.21826,7.459961-6.21826
	c4.15234,0,7.53027,3.10791,7.53027,6.927731C33.5,24.33075,30.844061,27.15332,27.35059,27.752621z"/>
</svg>
