<?xml version="1.0" encoding="utf-8"?>
<!-- Generator: Adobe Illustrator 18.0.0, SVG Export Plug-In . SVG Version: 6.00 Build 0)  -->
<!DOCTYPE svg PUBLIC "-//W3C//DTD SVG 1.1//EN" "http://www.w3.org/Graphics/SVG/1.1/DTD/svg11.dtd">
<svg version="1.1" id="location" xmlns="http://www.w3.org/2000/svg" xmlns:xlink="http://www.w3.org/1999/xlink" x="0px" y="0px"
	 width="52px" height="52px" viewBox="0 0 52 52" enable-background="new 0 0 52 52" xml:space="preserve">
<g id="location_1_">
	<path d="M26,5c8.28392,0,15,6.83922,15,15.272961C41,28.70764,26,47,26,47S11,28.70764,11,20.272961C11,11.83922,17.71608,5,26,5
		 M26,2C16.07476,2,8,10.19721,8,20.272961c0,9.240639,14.075279,26.672092,15.68021,28.629299
		C24.25004,49.597149,25.101351,50,26,50s1.74996-0.402851,2.31979-1.09774C29.924721,46.945049,44,29.513599,44,20.272961
		C44,10.19721,35.92524,2,26,2L26,2z"/>
	<path d="M26,14c3.308411,0,6,2.691589,6,6s-2.691589,6-6,6s-6-2.691589-6-6S22.691589,14,26,14 M26,11c-4.97056,0-9,4.02944-9,9
		s4.02944,9,9,9s9-4.02944,9-9S30.97056,11,26,11L26,11z"/>
</g>
</svg>
