<?xml version="1.0" encoding="utf-8"?>
<!-- Generator: Adobe Illustrator 18.0.0, SVG Export Plug-In . SVG Version: 6.00 Build 0)  -->
<!DOCTYPE svg PUBLIC "-//W3C//DTD SVG 1.1//EN" "http://www.w3.org/Graphics/SVG/1.1/DTD/svg11.dtd">
<svg version="1.1" id="p2p" xmlns="http://www.w3.org/2000/svg" xmlns:xlink="http://www.w3.org/1999/xlink" x="0px" y="0px"
	 width="52px" height="52px" viewBox="0 0 52 52" enable-background="new 0 0 52 52" xml:space="preserve">
<g id="p2p_1_">
	<path d="M45.5,9.5h-3v-3C42.5,5.671387,41.828125,5,41,5s-1.5,0.671387-1.5,1.5v3h-3c-0.828125,0-1.5,0.671387-1.5,1.5
		s0.671875,1.5,1.5,1.5h3v3c0,0.828613,0.671875,1.5,1.5,1.5s1.5-0.671387,1.5-1.5v-3h3c0.828125,0,1.5-0.671387,1.5-1.5
		S46.328125,9.5,45.5,9.5z"/>
	<path d="M40.072449,38.461426c-4.318298-2.560974-8.43457-4.780701-8.43457-4.780701
		c-0.674744-0.341431-1.109314-2.061707-1.33429-3.214233c-0.058044-0.232117-0.105225-0.367981-0.150146-0.709351
		c4.498352-3.756226,3.553711-11.823486,3.553711-11.823486c-0.419006-8.428101-7.355103-8.96936-8.958984-8.96936
		c-0.118164,0-0.207092,0.00293-0.262634,0.005859c-0.052429-0.00293-0.138916-0.005859-0.254578-0.005859
		c-1.572388,0-8.548096,0.54071-8.967163,8.96936c0,0-0.94458,8.067261,3.553772,11.823486
		c-0.077637,0.375671-0.103699,0.411438-0.193665,0.75293c-0.224915,1.152527-0.616028,2.829224-1.290833,3.170654
		c0,0-4.114746,2.219727-8.433167,4.780701C5.978821,40.193787,5.193909,42.082153,5,44.65686
		c0.141846,1.334961,1.259155,2.378845,2.632751,2.378845h33.706116c1.379272,0,2.5-1.052429,2.634399-2.395325
		C43.783752,42.074158,43.028015,40.190063,40.072449,38.461426z M8.088562,44.035706
		c0.210266-1.247131,0.739197-2.04364,2.341614-2.993896c4.057312-2.406128,7.986572-4.536438,8.30658-4.709595
		c1.82251-0.955322,2.413391-3.134094,2.809265-5.133972l0.035583-0.128052c0.057373-0.199585,0.099426-0.345459,0.173889-0.706055
		l0.363403-1.758667l-1.378479-1.151062c-2.639099-2.203735-2.696533-7.374268-2.496948-9.171875l0.011658-0.09967
		l0.005005-0.100281c0.264648-5.323486,3.854492-6.118286,5.970825-6.118286l0.087402,0.00116l0.168518,0.008118l0.15625-0.007568
		c0.023499-0.00116,0.05896-0.001709,0.105042-0.001709c2.113281,0,5.698059,0.794861,5.962708,6.118347l0.005005,0.10022
		l0.011658,0.09967c0.196106,1.674805,0.158325,6.954651-2.496948,9.171875l-1.266968,1.057861l0.215454,1.636414
		c0.055847,0.424133,0.121094,0.690125,0.18866,0.947266l0.009216,0.035522c0.57605,2.893433,1.434753,4.45636,2.858337,5.201355
		c0.325012,0.175781,4.253296,2.304993,8.32251,4.71814c1.66571,0.974243,2.147278,1.777893,2.335266,2.984741H8.088562z"/>
</g>
</svg>
