<?xml version="1.0" encoding="utf-8"?>
<!-- Generator: Adobe Illustrator 18.0.0, SVG Export Plug-In . SVG Version: 6.00 Build 0)  -->
<!DOCTYPE svg PUBLIC "-//W3C//DTD SVG 1.1//EN" "http://www.w3.org/Graphics/SVG/1.1/DTD/svg11.dtd">
<svg version="1.1" id="oversize-bag-filled" xmlns="http://www.w3.org/2000/svg" xmlns:xlink="http://www.w3.org/1999/xlink"
	 x="0px" y="0px" width="52px" height="52px" viewBox="0 0 52 52" enable-background="new 0 0 52 52" xml:space="preserve">
<path id="oversize-bag-filled_1_" d="M44,12.49957h-8v-3c0-1.64996-1.349979-3-3-3H19c-1.650021,0-3,1.35004-3,3v3H8
	c-1.65002,0-3,1.350039-3,3v24c0,1.650021,1.34998,3,3,3h6.00793c-0.00043,0.42548,0.08142,0.856869,0.27313,1.267941
	c0.3501,0.75079,0.97144,1.288639,1.69287,1.551208c0.7215,0.26263,1.543091,0.25,2.293949-0.100159
	c1.09058-0.508541,1.723141-1.590149,1.72418-2.71899h12.015139c-0.000431,0.42548,0.081421,0.856869,0.273129,1.267941
	c0.350159,0.75079,0.971439,1.288639,1.692871,1.551208c0.7215,0.26263,1.543152,0.25,2.293949-0.100159
	c1.09058-0.508541,1.723141-1.590149,1.724178-2.71899H38h3h3c1.650021,0,3-1.349979,3-3v-24
	C47,13.84961,45.650021,12.49957,44,12.49957z M19,9.49957h14v3H19V9.49957z M40.181641,28.560551l-4.242191,4.242191
	c-0.292969,0.292969-0.676762,0.439449-1.060551,0.439449s-0.767578-0.146481-1.060551-0.439449
	c-0.585941-0.585941-0.585941-1.53516,0-2.12109l1.66309-1.66309H16.168579l1.66345,1.66309
	c0.585939,0.585939,0.585939,1.53516,0,2.12109c-0.292971,0.292969-0.67676,0.439449-1.060551,0.439449
	s-0.76758-0.146481-1.06055-0.439449l-4.243159-4.242189c-0.58594-0.585939-0.58594-1.53516,0-2.12109l4.24316-4.24268
	c0.585939-0.585939,1.53516-0.585939,2.12109,0s0.585939,1.535641,0,2.12109l-1.700871,1.70068h19.387699l-1.7005-1.70068
	c-0.585941-0.585939-0.585941-1.535641,0-2.12109c0.585941-0.585939,1.53516-0.585939,2.12109,0l4.242191,4.24268
	C40.767578,27.025391,40.767578,27.974609,40.181641,28.560551z"/>
</svg>
