<?xml version="1.0" encoding="utf-8"?>
<!-- Generator: Adobe Illustrator 18.0.0, SVG Export Plug-In . SVG Version: 6.00 Build 0)  -->
<!DOCTYPE svg PUBLIC "-//W3C//DTD SVG 1.1//EN" "http://www.w3.org/Graphics/SVG/1.1/DTD/svg11.dtd">
<svg version="1.1" id="pet-filled" xmlns="http://www.w3.org/2000/svg" xmlns:xlink="http://www.w3.org/1999/xlink" x="0px" y="0px"
	 width="52px" height="52px" viewBox="0 0 52 52" enable-background="new 0 0 52 52" xml:space="preserve">
<g id="pet-filled_1_">
	<path d="M43.963871,36.679691c-0.015621-0.175781-0.036129-0.352539-0.064449-0.545898
		c-0.03027-0.203121-0.068359-0.404301-0.12598-0.675781c-0.041019-0.177731-0.08691-0.353519-0.134769-0.520512l-0.051762-0.179691
		c-0.042969-0.135738-0.087891-0.269531-0.130859-0.386719c-0.050781-0.143551-0.106449-0.283199-0.164059-0.423828
		l-0.048828-0.115231c-0.84473-1.97559-2.36816-3.63184-4.28027-4.658199c-0.114262-0.0625-0.229488-0.12402-0.34082-0.179689
		c-0.748051-0.37793-1.838871-1.418949-2.491211-2.040529l-0.06641-0.06299c-0.293949-0.290529-0.571289-0.94434-0.81641-1.521
		c-0.173828-0.40967-0.34668-0.810061-0.50684-1.105961C33.195309,21.06592,29.79785,19,26.085939,19h-0.171881
		c-3.71191,0-7.109379,2.06592-8.62598,5.206051c-0.21484,0.39941-0.383789,0.81592-0.546881,1.21875
		c-0.230471,0.566891-0.46777,1.15283-0.731449,1.41309c-0.64648,0.615231-1.85059,1.761721-2.62598,2.15332
		c-0.11719,0.05859-0.23242,0.12109-0.33789,0.178711c-1.9209,1.03027-3.44434,2.68652-4.27539,4.630859l-0.0625,0.146481
		c-0.05762,0.140621-0.11328,0.28027-0.1582,0.408199c-0.0498,0.137699-0.09766,0.276371-0.13867,0.41016l-0.04882,0.167
		c-0.0498,0.173828-0.0957,0.348629-0.15039,0.59766c-0.04297,0.199219-0.08105,0.400391-0.11523,0.630859
		c-0.02539,0.174801-0.0459,0.35059-0.06152,0.52734l-0.01465,0.19434C8.00684,37.085941,8,37.291988,8,37.5
		c0,0.807621,0.10449,1.609379,0.31055,2.387699c0.08203,0.302731,0.17676,0.601559,0.28711,0.891602
		c0.32715,0.867191,0.78223,1.682621,1.35449,2.422852c0.375,0.487301,0.7998,0.939449,1.25977,1.34473
		c0.11328,0.099609,0.23047,0.197269,0.35352,0.296879c0.4834,0.386719,1.00586,0.729488,1.55371,1.017582
		c0.27441,0.144531,0.55859,0.276371,0.85254,0.398441c0.44141,0.18066,0.89746,0.330078,1.35449,0.44434
		c0.987301,0.245121,2.0459,0.34277,3.026369,0.27734c0.397461-0.02441,0.792971-0.071289,1.174801-0.141602
		c0.94824-0.174801,1.856449-0.487301,2.658199-0.90723c1.713871-0.831051,3.84082-1.064449,5.78809-0.635738
		c0.648439,0.144531,1.26758,0.358398,1.79883,0.614262c0.33008,0.173828,0.678709,0.330078,1.03418,0.463871
		c0.35742,0.135738,0.727541,0.25098,1.09668,0.341801c0.375978,0.09277,0.76367,0.164059,1.149408,0.209961
		C33.443359,46.97559,33.84668,47,34.25,47c0.818359,0,1.633789-0.099609,2.424801-0.296879
		c0.456051-0.113281,0.912109-0.262699,1.358398-0.445309c0.289059-0.120121,0.573238-0.251949,0.84668-0.396481
		c0.548828-0.28809,1.071289-0.630859,1.55957-1.021481c0.11816-0.095699,0.235352-0.193359,0.348629-0.292969
		c0.459961-0.40527,0.884769-0.857422,1.259769-1.34473c0.572269-0.740231,1.02734-1.55566,1.354488-2.420898
		c0.110352-0.291988,0.205078-0.59082,0.287109-0.897461C43.895512,39.109379,44,38.307621,44,37.5
		c0-0.208981-0.00684-0.416988-0.020512-0.62109L43.963871,36.679691z"/>
	<path d="M14,21c0-3.36426-1.97656-6-4.5-6S5,17.63574,5,21s1.97656,6,4.5,6S14,24.36426,14,21z"/>
	<path d="M42.5,15c-2.523441,0-4.5,2.63574-4.5,6s1.976559,6,4.5,6s4.5-2.63574,4.5-6S45.023441,15,42.5,15z"/>
	<path d="M19.5,17c2.523439,0,4.5-2.63574,4.5-6s-1.976561-6-4.5-6S15,7.63574,15,11S16.976561,17,19.5,17z"/>
	<path d="M32.5,17c2.523441,0,4.5-2.63574,4.5-6s-1.976559-6-4.5-6S28,7.63574,28,11S29.976561,17,32.5,17z"/>
</g>
</svg>
