<?xml version="1.0" encoding="utf-8"?>
<!-- Generator: Adobe Illustrator 18.0.0, SVG Export Plug-In . SVG Version: 6.00 Build 0)  -->
<!DOCTYPE svg PUBLIC "-//W3C//DTD SVG 1.1//EN" "http://www.w3.org/Graphics/SVG/1.1/DTD/svg11.dtd">
<svg version="1.1" id="payment-due" xmlns="http://www.w3.org/2000/svg" xmlns:xlink="http://www.w3.org/1999/xlink" x="0px"
	 y="0px" width="52px" height="52px" viewBox="0 0 52 52" enable-background="new 0 0 52 52" xml:space="preserve">
<g id="payment-due_1_">
	<path d="M23.61804,28.175659l5.14258,5.142578c0.53265,0.53265,1.439329,0.489201,2.0249-0.096371
		s0.629089-1.49225,0.096439-2.0249l-4.63666-4.636721v-6.88763c0-0.7533-0.671881-1.363649-1.5-1.363649s-1.5,0.61035-1.5,1.363649
		v7.623051c0,0.108459,0.01544,0.26025,0.051571,0.344971C23.35162,27.85968,23.45105,28.008671,23.61804,28.175659z"/>
	<path d="M26,5c-0.82843,0-1.5,0.67157-1.5,1.5S25.17157,8,26,8c9.925232,0,18,8.07477,18,18s-8.074768,18-18,18S8,35.925228,8,26
		c0-5.725161,2.69128-10.82904,6.870359-14.12787l0.00134,2.3324c0.00262,0.82739,0.67273,1.50055,1.50073,1.49878
		c0.8288,0.00018,1.499691-0.67157,1.49939-1.50031l-0.00354-6.00006c-0.00012-0.073-0.00543-0.14429-0.01556-0.21484
		c-0.10461-0.72687-0.729549-1.28516-1.48517-1.284l-6.000179,0.00299C9.53912,6.70691,8.86768,7.37872,8.86804,8.2074
		c0.00281,0.82544,0.67157,1.49976,1.500731,1.49884l2.405519-0.00122C8.03528,13.55438,5,19.41864,5,26
		c0,11.598019,9.40198,21,21,21s21-9.401981,21-21C47,14.4021,37.598019,5,26,5z"/>
</g>
</svg>
