<?xml version="1.0" encoding="utf-8"?>
<!-- Generator: Adobe Illustrator 18.0.0, SVG Export Plug-In . SVG Version: 6.00 Build 0)  -->
<!DOCTYPE svg PUBLIC "-//W3C//DTD SVG 1.1//EN" "http://www.w3.org/Graphics/SVG/1.1/DTD/svg11.dtd">
<svg version="1.1" id="paperless-filled" xmlns="http://www.w3.org/2000/svg" xmlns:xlink="http://www.w3.org/1999/xlink" x="0px"
	 y="0px" width="52px" height="52px" viewBox="0 0 52 52" enable-background="new 0 0 52 52" xml:space="preserve">
<path id="paperless-filled_2_" d="M24.032227,46.983398c0.000977,0,0.000977,0,0.001953,0
	c9.677734,0,16.869141-9.982422,17.164062-10.398438c7.420898-10.296875,5.30957-29.050781,5.21582-29.844238
	c-0.072266-0.620605-0.522461-1.130371-1.129883-1.280273c-0.604492-0.150391-1.243164,0.092285-1.595703,0.606934
	c-2.223633,3.237793-8.881836,4.341797-11.258789,4.493652c-7.879883,0.492188-12.736328,2.916992-12.996094,3.050293
	c-12.987305,7.30957-9.580078,21.488281-9.540039,21.648438c0,0,1.018433,3.673828,2.585876,5.933594
	c0.000122,0.000244,0.000244,0.000366,0.000366,0.00061c-3.449951,1.577209-5.973206,2.133057-6.035461,2.145874
	c-0.810547,0.169922-1.331055,0.963867-1.162109,1.774414c0.147461,0.708008,0.770508,1.194336,1.466797,1.194336
	c0.100586,0,0.203125-0.009766,0.305664-0.03125c0.297424-0.061462,3.460327-0.750549,7.579956-2.736389
	C19.363037,47.144409,24.032227,46.983398,24.032227,46.983398z M16.253906,41.009766
	c-0.381165-0.302429-0.739075-0.714783-1.072388-1.183411c4.815552-2.665039,10.507568-7.144836,14.014771-14.433777
	c0.358398-0.746094,1.253906-1.061035,2.001953-0.701172c0.746094,0.358887,1.060547,1.255371,0.701172,2.001953
	c-3.64093,7.567139-9.302124,12.329407-14.305908,15.265381C17.143555,41.669495,16.695923,41.360596,16.253906,41.009766z"/>
</svg>
