<?xml version="1.0" encoding="utf-8"?>
<!-- Generator: Adobe Illustrator 18.0.0, SVG Export Plug-In . SVG Version: 6.00 Build 0)  -->
<!DOCTYPE svg PUBLIC "-//W3C//DTD SVG 1.1//EN" "http://www.w3.org/Graphics/SVG/1.1/DTD/svg11.dtd">
<svg version="1.1" id="plus-circle" xmlns="http://www.w3.org/2000/svg" xmlns:xlink="http://www.w3.org/1999/xlink" x="0px"
	 y="0px" width="52px" height="52px" viewBox="0 0 52 52" enable-background="new 0 0 52 52" xml:space="preserve">
<g id="plus-circle_1_">
	<path d="M26,2C12.74518,2,2,12.74518,2,26s10.74518,24,24,24s24-10.745178,24-24S39.254822,2,26,2z M26,47
		C14.42053,47,5,37.579411,5,26C5,14.42053,14.42053,5,26,5s21,9.42053,21,21C47,37.579411,37.579472,47,26,47z"/>
	<path d="M36.5,24.5h-9v-9c0-0.82861-0.671881-1.5-1.5-1.5s-1.5,0.67139-1.5,1.5v9h-9c-0.82861,0-1.5,0.671391-1.5,1.5
		s0.67139,1.5,1.5,1.5h9v9c0,0.828121,0.671881,1.5,1.5,1.5s1.5-0.671879,1.5-1.5v-9h9c0.828121,0,1.5-0.671391,1.5-1.5
		S37.328121,24.5,36.5,24.5z"/>
</g>
</svg>
