<?xml version="1.0" encoding="utf-8"?>
<!-- Generator: Adobe Illustrator 18.0.0, SVG Export Plug-In . SVG Version: 6.00 Build 0)  -->
<!DOCTYPE svg PUBLIC "-//W3C//DTD SVG 1.1//EN" "http://www.w3.org/Graphics/SVG/1.1/DTD/svg11.dtd">
<svg version="1.1" id="pet" xmlns="http://www.w3.org/2000/svg" xmlns:xlink="http://www.w3.org/1999/xlink" x="0px" y="0px"
	 width="52px" height="52px" viewBox="0 0 52 52" enable-background="new 0 0 52 52" xml:space="preserve">
<g id="pet_1_">
	<path d="M43.963871,36.679691c-0.015621-0.175781-0.036129-0.352539-0.064449-0.545898
		c-0.03027-0.203121-0.068359-0.404301-0.12598-0.675781c-0.041019-0.177731-0.08691-0.353519-0.134769-0.520512l-0.051762-0.179691
		c-0.042969-0.135738-0.087891-0.269531-0.130859-0.386719c-0.050781-0.143551-0.106449-0.283199-0.164059-0.423828
		l-0.048828-0.115231c-0.84473-1.97559-2.36816-3.63184-4.28027-4.658199c-0.114262-0.0625-0.229488-0.12402-0.34082-0.179689
		c-0.748051-0.37793-1.838871-1.418949-2.491211-2.040529l-0.06641-0.06299c-0.293949-0.290529-0.571289-0.94434-0.81641-1.521
		c-0.173828-0.40967-0.34668-0.810061-0.50684-1.105961C33.195309,21.06592,29.79785,19,26.085939,19h-0.171881
		c-3.71191,0-7.109379,2.06592-8.62598,5.206051c-0.21484,0.39941-0.383789,0.81592-0.546881,1.21875
		c-0.230471,0.566891-0.46777,1.15283-0.731449,1.41309c-0.64648,0.615231-1.85107,1.761721-2.62842,2.154301
		c-0.11475,0.05859-0.22852,0.119141-0.33594,0.177731c-1.91943,1.03027-3.44287,2.685551-4.29102,4.666019l-0.04639,0.111328
		c-0.05762,0.140621-0.11328,0.28027-0.1582,0.408199c-0.04932,0.135738-0.09619,0.272461-0.13818,0.41016l-0.04785,0.16309
		c-0.05078,0.175781-0.09766,0.353519-0.15234,0.601559c-0.04346,0.200199-0.08154,0.40332-0.11523,0.634769
		C8.06542,36.37989,8.041,36.595711,8.0244,36.829109C8.00879,37.049801,8,37.273441,8,37.5
		c0,0.80566,0.104,1.607422,0.31006,2.384769c0.08105,0.304691,0.17725,0.603519,0.2876,0.894531
		c0.32666,0.867191,0.78271,1.682621,1.35449,2.422852c0.37451,0.486328,0.79883,0.93848,1.26074,1.34473
		c0.11426,0.10059,0.23096,0.199219,0.35303,0.296879c0.48438,0.387699,1.00732,0.730469,1.5542,1.017582
		c0.27539,0.145512,0.55811,0.27734,0.85156,0.398441c0.44238,0.18066,0.89795,0.330078,1.35449,0.44434
		c0.987301,0.245121,2.042971,0.34277,3.026369,0.27734c0.397461-0.02441,0.792971-0.071289,1.174801-0.141602
		c0.94824-0.174801,1.856449-0.487301,2.658199-0.90723c1.713871-0.831051,3.838871-1.064449,5.78809-0.635738
		c0.648439,0.144531,1.26758,0.358398,1.79883,0.614262c0.33008,0.173828,0.678709,0.330078,1.03418,0.463871
		c0.35742,0.135738,0.727541,0.25098,1.09668,0.341801c0.375978,0.09277,0.76367,0.164059,1.149408,0.209961
		C33.443359,46.97559,33.84668,47,34.25,47c0.818359,0,1.633789-0.099609,2.424801-0.296879
		c0.456051-0.113281,0.912109-0.262699,1.358398-0.445309c0.289059-0.120121,0.573238-0.251949,0.84668-0.396481
		c0.548828-0.28809,1.071289-0.630859,1.55957-1.021481c0.11816-0.095699,0.235352-0.193359,0.348629-0.292969
		c0.459961-0.40527,0.884769-0.857422,1.259769-1.34473c0.572269-0.740231,1.02734-1.55566,1.354488-2.420898
		c0.110352-0.291988,0.205078-0.59082,0.287109-0.897461C43.895512,39.109379,44,38.307621,44,37.5
		c0-0.208981-0.00684-0.416988-0.020512-0.62109L43.963871,36.679691z M11.276849,35.654301
		c0.02832-0.09082,0.05859-0.18066,0.09668-0.28516c0.03369-0.09473,0.0708-0.1875,0.14062-0.356449
		c0.57959-1.353519,1.62695-2.490231,2.95557-3.203119l0.26172-0.137699c1.17578-0.59473,2.482421-1.837891,3.374999-2.68848
		c0.713869-0.706051,1.085939-1.62207,1.414061-2.43018c0.130859-0.32275,0.257811-0.64307,0.439449-0.983891
		c1.04785-2.167971,3.384769-3.56885,5.95801-3.56885c0.00098,0,0.00098,0,0.00098,0L26.085939,22
		c2.568359,0,4.90625,1.400881,5.9834,3.626949c0.14941,0.27734,0.28125,0.59326,0.416988,0.914551
		c0.353519,0.83252,0.75391,1.776859,1.489262,2.502439l0.084961,0.081051c0.87109,0.83008,2.064449,1.96875,3.213871,2.549799
		c0.085941,0.042971,0.169922,0.088869,0.261719,0.137699c1.323238,0.710941,2.370121,1.84668,2.982422,3.27734
		c0.03809,0.091801,0.074219,0.18457,0.113281,0.294922c0.033199,0.091801,0.064449,0.18457,0.08984,0.261719l0.03125,0.111328
		c0.03516,0.120121,0.067379,0.241211,0.103519,0.40723c0.029301,0.134769,0.05566,0.271481,0.078121,0.431641
		c0.021481,0.144531,0.037109,0.290039,0.047852,0.4375l0.001949,0.021481C40.995121,37.201172,41,37.349609,41,37.5
		c0,0.547852-0.070309,1.09082-0.208981,1.610352c-0.054691,0.207031-0.120121,0.41016-0.195309,0.610352
		c-0.22168,0.588871-0.53223,1.143551-0.922852,1.64941c-0.258789,0.334961-0.549801,0.646481-0.867191,0.924801
		c-0.082031,0.072269-0.166019,0.142578-0.24609,0.207031c-0.334961,0.267578-0.696289,0.504879-1.077148,0.705078
		c-0.192379,0.101559-0.390621,0.19434-0.588871,0.275391c-0.30957,0.126949-0.626949,0.231449-0.94434,0.30957
		c-0.825199,0.205078-1.692379,0.260738-2.533199,0.15723c-0.270512-0.03223-0.536129-0.081051-0.794922-0.144531
		c-0.257809-0.064449-0.508789-0.142578-0.75293-0.235352c-0.242189-0.091801-0.476561-0.196289-0.745119-0.335941
		c-0.783199-0.379879-1.62402-0.669922-2.50098-0.865231C27.76465,42.178711,26.882811,42.083012,26,42.083012
		c-1.79785,0-3.56934,0.397461-5.164061,1.170898c-0.57617,0.300781-1.199221,0.514648-1.851561,0.634769
		c-0.26465,0.048828-0.537109,0.082031-0.817381,0.098629c-0.70508,0.045898-1.427731-0.02441-2.115231-0.19434
		c-0.31738-0.079102-0.63477-0.18359-0.94238-0.30957c-0.20264-0.083012-0.40039-0.175781-0.59277-0.276371
		c-0.37842-0.199219-0.74072-0.43652-1.07373-0.703121c-0.08496-0.068359-0.16748-0.137699-0.24854-0.208981
		c-0.31738-0.279301-0.60938-0.59082-0.86719-0.924801c-0.39014-0.505859-0.70068-1.060551-0.92334-1.651371
		c-0.07471-0.197269-0.13965-0.400391-0.19385-0.603519C11.0708,38.58984,11,38.045898,11,37.5
		c0-0.154301,0.00586-0.307621,0.01758-0.46973c0.01074-0.147461,0.02734-0.292969,0.05127-0.458981
		c0.02002-0.137699,0.04541-0.272461,0.08447-0.453121c0.02686-0.12109,0.05908-0.240231,0.09326-0.359379L11.276849,35.654301z"/>
	<path d="M14,21c0-3.36426-1.97656-6-4.5-6S5,17.63574,5,21s1.97656,6,4.5,6S14,24.36426,14,21z M8,21c0-1.831539,0.88818-3,1.5-3
		s1.5,1.168461,1.5,3s-0.88818,3-1.5,3S8,22.831539,8,21z"/>
	<path d="M42.5,15c-2.523441,0-4.5,2.63574-4.5,6s1.976559,6,4.5,6s4.5-2.63574,4.5-6S45.023441,15,42.5,15z M42.5,24
		c-0.611328,0-1.5-1.168461-1.5-3s0.888672-3,1.5-3s1.5,1.168461,1.5,3S43.111328,24,42.5,24z"/>
	<path d="M19.5,17c2.523439,0,4.5-2.63574,4.5-6s-1.976561-6-4.5-6S15,7.63574,15,11S16.976561,17,19.5,17z M19.5,8
		c0.61133,0,1.5,1.16846,1.5,3s-0.88867,3-1.5,3S18,12.83154,18,11S18.88867,8,19.5,8z"/>
	<path d="M32.5,17c2.523441,0,4.5-2.63574,4.5-6s-1.976559-6-4.5-6S28,7.63574,28,11S29.976561,17,32.5,17z M32.5,8
		c0.611328,0,1.5,1.16846,1.5,3s-0.888672,3-1.5,3S31,12.83154,31,11S31.88867,8,32.5,8z"/>
</g>
</svg>
