<?xml version="1.0" encoding="utf-8"?>
<!-- Generator: Adobe Illustrator 18.0.0, SVG Export Plug-In . SVG Version: 6.00 Build 0)  -->
<!DOCTYPE svg PUBLIC "-//W3C//DTD SVG 1.1//EN" "http://www.w3.org/Graphics/SVG/1.1/DTD/svg11.dtd">
<svg version="1.1" id="point-2x" xmlns="http://www.w3.org/2000/svg" xmlns:xlink="http://www.w3.org/1999/xlink" x="0px" y="0px"
	 width="52px" height="52px" viewBox="0 0 52 52" enable-background="new 0 0 52 52" xml:space="preserve">
<g id="point-2x_1_">
	<path d="M14.98883,22.660641c0.19238-0.61768,0.48047-1.157709,0.86426-1.619631s0.86719-0.822269,1.44922-1.08008
		c0.582029-0.258301,1.25098-0.387211,2.00684-0.387211c0.57617,0,1.125,0.08984,1.646481,0.27002
		c0.522459,0.18018,0.981449,0.43799,1.376949,0.77393c0.396481,0.33643,0.710939,0.75,0.945311,1.242189
		s0.35059,1.043949,0.35059,1.65576c0,0.63623-0.101561,1.182131-0.30566,1.63818s-0.474609,0.86133-0.80957,1.21484
		c-0.33691,0.354-0.71777,0.675289-1.143551,0.962891c-0.425779,0.28809-0.85449,0.57324-1.286129,0.855471
		c-0.432619,0.28223-0.852539,0.584959-1.26074,0.90918s-0.76758,0.70215-1.08008,1.133791h5.95801v2.196289H14.4488
		c0-0.73242,0.10547-1.36816,0.31543-1.908199s0.49512-1.022461,0.85449-1.449221
		c0.36035-0.425779,0.7832-0.818359,1.26953-1.178709s0.99902-0.72559,1.539061-1.098141
		c0.275391-0.191891,0.56934-0.387211,0.88184-0.585449c0.31152-0.19775,0.59668-0.4165,0.85449-0.65674
		c0.258789-0.23975,0.474609-0.509769,0.648439-0.810061c0.17383-0.299801,0.26074-0.6416,0.26074-1.025881
		c0-0.612301-0.17676-1.088869-0.53027-1.43115c-0.35449-0.341801-0.807619-0.512699-1.359381-0.512699
		c-0.37207,0-0.6875,0.08691-0.945311,0.26074c-0.257811,0.17432-0.46484,0.40234-0.62109,0.68408
		c-0.15527,0.28223-0.2666,0.59375-0.33301,0.936041c-0.06543,0.341801-0.098631,0.68115-0.098631,1.01709h-2.44824
		C14.71247,23.94775,14.79743,23.278811,14.98883,22.660641z"/>
	<path d="M25.6889,19.57373h3.276371l2.519529,4.104l2.61035-4.104h3.095699l-4.12207,6.13818l4.482422,6.714359H34.18499
		l-2.807621-4.446289l-2.862301,4.446289h-3.167969l4.481449-6.73242L25.6889,19.57373z"/>
	<path d="M25.999901,4.99993C37.57938,4.99993,46.999969,14.420521,46.999969,26S37.57938,47.000061,25.999901,47.000061
		C14.4205,47.000061,4.99997,37.579479,4.99997,26S14.4205,4.99993,25.999901,4.99993 M25.999901,1.99993
		C12.74512,1.99993,1.99997,12.74508,1.99997,26c0,13.254799,10.74515,24.000061,23.999929,24.000061
		c13.254919,0,24.000071-10.74527,24.000071-24.000059C49.999969,12.74508,39.254822,1.99993,25.999901,1.99993L25.999901,1.99993z"
		/>
</g>
</svg>
