<?xml version="1.0" encoding="utf-8"?>
<!-- Generator: Adobe Illustrator 18.0.0, SVG Export Plug-In . SVG Version: 6.00 Build 0)  -->
<!DOCTYPE svg PUBLIC "-//W3C//DTD SVG 1.1//EN" "http://www.w3.org/Graphics/SVG/1.1/DTD/svg11.dtd">
<svg version="1.1" id="point-3x-filled" xmlns="http://www.w3.org/2000/svg" xmlns:xlink="http://www.w3.org/1999/xlink" x="0px"
	 y="0px" width="52px" height="52px" viewBox="0 0 52 52" enable-background="new 0 0 52 52" xml:space="preserve">
<path id="point-3x-filled_1_" d="M25.99988,1.99994C12.74512,1.99994,2,12.74506,2,26
	c0,13.254761,10.74512,24.000061,23.99988,24.000061C39.254822,50.000061,50,39.254761,50,26
	C50,12.74506,39.254822,1.99994,25.99988,1.99994z M23.433531,30.185301c-0.257811,0.515619-0.602541,0.94824-1.03516,1.2959
	c-0.431641,0.34766-0.929689,0.612301-1.494141,0.791988c-0.56348,0.179691-1.151369,0.269531-1.76367,0.269531
	c-0.70801,0-1.352539-0.101559-1.93457-0.30566c-0.58301-0.204102-1.07715-0.50098-1.48535-0.890619
	c-0.4082-0.390619-0.72266-0.867189-0.94531-1.431641c-0.22168-0.56348-0.32715-1.21191-0.31445-1.943359h2.429689
	c0.011721,0.335939,0.06543,0.65625,0.162109,0.962891c0.095699,0.30566,0.234381,0.570311,0.414061,0.79199
	s0.40527,0.398439,0.674801,0.53125c0.27051,0.13184,0.59082,0.197269,0.962891,0.197269c0.57617,0,1.0625-0.17676,1.45801-0.53027
	c0.396481-0.35449,0.59375-0.837891,0.59375-1.449221c0-0.480471-0.09277-0.84668-0.27832-1.098631
	c-0.18652-0.251949-0.42285-0.43408-0.710939-0.54834c-0.28809-0.11377-0.603519-0.18018-0.945311-0.19824
	c-0.341801-0.01758-0.668949-0.026859-0.981449-0.026859V24.80348c0.276369,0.02393,0.570311,0.02393,0.882811,0
	c0.31152-0.02393,0.602539-0.09277,0.873051-0.207029c0.269529-0.11426,0.491211-0.279301,0.666019-0.495119
	c0.17383-0.21582,0.26074-0.50391,0.26074-0.86377c0-0.540041-0.179689-0.9541-0.540041-1.242189
	s-0.77441-0.432131-1.242189-0.432131c-0.647459,0-1.136721,0.213381-1.466801,0.63916
	c-0.33008,0.42627-0.48926,0.962891-0.477539,1.61084h-2.429689c0.02441-0.647949,0.14062-1.23877,0.35156-1.772949
	c0.20898-0.533689,0.50391-0.99268,0.88184-1.376949c0.377931-0.383789,0.830079-0.68115,1.358399-0.891109
	c0.52832-0.209471,1.116209-0.314939,1.76465-0.314939c0.50391,0,1.007811,0.075199,1.511721,0.2251
	s0.957029,0.375,1.359381,0.674801c0.401369,0.300289,0.728519,0.666019,0.980471,1.098141s0.37793,0.93018,0.37793,1.494141
	c0,0.61182-0.146481,1.151859-0.44043,1.619631c-0.29492,0.46826-0.73535,0.786131-1.32324,0.9541v0.036131
	c0.695311,0.15625,1.242189,0.492189,1.637699,1.007811c0.396481,0.515619,0.59375,1.133791,0.59375,1.853519
	C23.82025,29.080811,23.691351,29.66968,23.433531,30.185301z M34.17395,32.30933l-2.807621-4.446289l-2.862301,4.446289h-3.167971
	l4.481451-6.73193l-4.13965-6.120121h3.276369l2.519529,4.104l2.61035-4.104h3.095699l-4.12207,6.13818l4.482418,6.713871H34.17395z
	"/>
</svg>
