<?xml version="1.0" encoding="utf-8"?>
<!-- Generator: Adobe Illustrator 18.0.0, SVG Export Plug-In . SVG Version: 6.00 Build 0)  -->
<!DOCTYPE svg PUBLIC "-//W3C//DTD SVG 1.1//EN" "http://www.w3.org/Graphics/SVG/1.1/DTD/svg11.dtd">
<svg version="1.1" id="point-5x" xmlns="http://www.w3.org/2000/svg" xmlns:xlink="http://www.w3.org/1999/xlink" x="0px" y="0px"
	 width="52px" height="52px" viewBox="0 0 52 52" enable-background="new 0 0 52 52" xml:space="preserve">
<g id="point-5x_1_">
	<path d="M25.99988,1.99994C12.74512,1.99994,2,12.74506,2,26c0,13.254761,10.74512,24.000061,23.99988,24.000061
		C39.254822,50.000061,50,39.254761,50,26C50,12.74506,39.254822,1.99994,25.99988,1.99994z M25.99988,47.000061
		C14.42053,47.000061,5,37.579472,5,26S14.42053,4.99994,25.99988,4.99994C37.579411,4.99994,47,14.42053,47,26
		S37.579411,47.000061,25.99988,47.000061z"/>
	<path d="M22.802919,25.000731c-0.33008-0.383789-0.73535-0.689939-1.21484-0.917971
		c-0.480471-0.227539-1.03174-0.341801-1.65576-0.341801c-0.50391,0-0.9541,0.075199-1.349609,0.2251
		c-0.396481,0.1499-0.768551,0.39893-1.116211,0.74658L17.430361,24.677l0.50391-2.862299h5.20166V19.70874h-7.0376
		l-1.24219,6.966311h2.30469c0.251949-0.348141,0.521481-0.603029,0.80957-0.765141s0.66016-0.24316,1.116211-0.24316
		c0.34766,0,0.65332,0.060061,0.917971,0.18018c0.26367,0.120119,0.492189,0.28809,0.68359,0.50391
		c0.192381,0.21582,0.335939,0.46777,0.432131,0.755859c0.095699,0.28809,0.143551,0.59375,0.143551,0.917971
		c0,0.3125-0.050779,0.615231-0.15332,0.90918c-0.10107,0.293949-0.245609,0.55176-0.43115,0.773439
		c-0.18652,0.22266-0.414061,0.40234-0.68359,0.540041c-0.27051,0.13867-0.57324,0.207029-0.90918,0.207029
		c-0.57617,0-1.050779-0.1709-1.421881-0.512699c-0.37207-0.341801-0.588869-0.800779-0.648439-1.376949h-2.55566
		c0.01172,0.66016,0.14648,1.23926,0.4043,1.737301c0.25879,0.498051,0.60352,0.915041,1.03516,1.25098
		c0.43262,0.335939,0.92773,0.584959,1.485351,0.747068c0.557619,0.161129,1.14258,0.242191,1.754879,0.242191
		c0.63574,0.011719,1.23633-0.09277,1.799801-0.314449c0.563959-0.22168,1.05908-0.537109,1.484859-0.945311
		c0.425779-0.40723,0.76465-0.890619,1.0166-1.449221c0.251949-0.557619,0.37793-1.161129,0.37793-1.80859
		c0-0.587891-0.08691-1.14258-0.26074-1.665039C23.384951,25.83765,23.132999,25.38501,22.802919,25.000731z"/>
	<polygon points="37.17902,19.456791 34.083309,19.456791 31.47296,23.560789 28.95343,19.456791 25.677059,19.456791 
		29.81671,25.5769 25.33527,32.308842 28.503229,32.308842 31.36554,27.862551 34.173161,32.308842 37.539371,32.308842 
		33.05695,25.594971 	"/>
</g>
</svg>
