<?xml version="1.0" encoding="utf-8"?>
<!-- Generator: Adobe Illustrator 18.0.0, SVG Export Plug-In . SVG Version: 6.00 Build 0)  -->
<!DOCTYPE svg PUBLIC "-//W3C//DTD SVG 1.1//EN" "http://www.w3.org/Graphics/SVG/1.1/DTD/svg11.dtd">
<svg version="1.1" id="print" xmlns="http://www.w3.org/2000/svg" xmlns:xlink="http://www.w3.org/1999/xlink" x="0px" y="0px"
	 width="52px" height="52px" viewBox="0 0 52 52" enable-background="new 0 0 52 52" xml:space="preserve">
<path id="print_1_" d="M44,11h-9V8c0-1.65002-1.349979-3-3-3H20c-1.650021,0-3,1.34998-3,3v3H8c-1.65002,0-3,1.34998-3,3v21
	c0,1.64996,1.34998,3,3,3h6.08893l-1.03595,5.43866c-0.1673,0.87817,0.0658,1.78516,0.63574,2.473938
	C14.25867,46.601318,15.10602,47,16,47h20c0.893982,0,1.741329-0.398682,2.311279-1.087399
	c0.56995-0.688782,0.80304-1.59576,0.635738-2.473942L37.911072,38H44c1.650021,0,3-1.35004,3-3V14C47,12.34998,45.650021,11,44,11z
	 M20,8h12v3H20V8z M36.089901,28.43866C35.82037,27.02368,34.583248,26,33.142879,26H18.857121
	c-1.440371,0-2.67749,1.02368-2.94702,2.43866L15.80316,29H14v-6h24v6h-1.803162L36.089901,28.43866z M16,44l2.857121-15h14.28577
	L36,44H16z M44,35h-6.660339l-0.571411-3H38c1.650021,0,3-1.35004,3-3v-6c0-1.650021-1.349979-3-3-3H14c-1.65002,0-3,1.349979-3,3
	v6.046879C11,30.67108,12.32892,32,13.95312,32h1.27863l-0.57141,3H8V14h12h12h12V35z"/>
</svg>
