<?xml version="1.0" encoding="utf-8"?>
<!-- Generator: Adobe Illustrator 18.0.0, SVG Export Plug-In . SVG Version: 6.00 Build 0)  -->
<!DOCTYPE svg PUBLIC "-//W3C//DTD SVG 1.1//EN" "http://www.w3.org/Graphics/SVG/1.1/DTD/svg11.dtd">
<svg version="1.1" id="receipt" xmlns="http://www.w3.org/2000/svg" xmlns:xlink="http://www.w3.org/1999/xlink" x="0px" y="0px"
	 width="52px" height="52px" viewBox="0 0 52 52" enable-background="new 0 0 52 52" xml:space="preserve">
<g id="receipt_1_">
	<path d="M41,2H11C9.34998,2,8,3.34998,8,5v6c0,1.65002,1.34998,3,3,3v34.5c0,0.59473,0.35156,1.132809,0.89551,1.373051
		c0.54443,0.238281,1.17969,0.133789,1.61719-0.266602L17,46.414059l3.487301,3.192379
		c0.572269,0.525391,1.453119,0.525391,2.025391,0L26,46.414059l3.487301,3.192379c0.572269,0.525391,1.453119,0.525391,2.025391,0
		L35,46.414059l3.487301,3.192379C38.769531,49.864262,39.13184,50,39.5,50c0.204102,0,0.41016-0.041988,0.604488-0.126949
		C40.648441,49.632809,41,49.09473,41,48.5V14c1.650021,0,3-1.34998,3-3V5C44,3.34998,42.650021,2,41,2z M38,45.09277
		l-1.987301-1.81934c-0.572269-0.525391-1.453121-0.525391-2.025391,0L30.5,46.46582l-3.487301-3.192379
		C26.726568,43.010742,26.363289,42.87989,26,42.87989s-0.726561,0.130859-1.012699,0.393551L21.5,46.46582l-3.487301-3.192379
		c-0.572269-0.525391-1.453119-0.525391-2.02539,0L14,45.09277V14h24V45.09277z M41,11h-1.5h-27H11V5h30V11z"/>
	<path d="M21.5,23h9c0.828119,0,1.5-0.671391,1.5-1.5S31.328119,20,30.5,20h-9c-0.828119,0-1.5,0.671391-1.5,1.5
		S20.671881,23,21.5,23z"/>
	<path d="M21.5,29h9c0.828119,0,1.5-0.671881,1.5-1.5c0-0.828609-0.671881-1.5-1.5-1.5h-9c-0.828119,0-1.5,0.671391-1.5,1.5
		C20,28.328119,20.671881,29,21.5,29z"/>
	<path d="M21.5,35h9c0.828119,0,1.5-0.671879,1.5-1.5S31.328119,32,30.5,32h-9c-0.828119,0-1.5,0.671879-1.5,1.5
		S20.671881,35,21.5,35z"/>
</g>
</svg>
