<?xml version="1.0" encoding="utf-8"?>
<!-- Generator: Adobe Illustrator 18.0.0, SVG Export Plug-In . SVG Version: 6.00 Build 0)  -->
<!DOCTYPE svg PUBLIC "-//W3C//DTD SVG 1.1//EN" "http://www.w3.org/Graphics/SVG/1.1/DTD/svg11.dtd">
<svg version="1.1" id="refreshment" xmlns="http://www.w3.org/2000/svg" xmlns:xlink="http://www.w3.org/1999/xlink" x="0px"
	 y="0px" width="52px" height="52px" viewBox="0 0 52 52" enable-background="new 0 0 52 52" xml:space="preserve">
<path id="refreshment_1_" d="M44,14c0-3.31372-2.686279-6-6-6s-6,2.68628-6,6h-9.41913l-2.65802-7.97412
	c-0.010189-0.03064-0.026791-0.05695-0.0387-0.08649c-0.02051-0.05054-0.04071-0.10071-0.066589-0.14874
	c-0.023439-0.04364-0.05048-0.08374-0.0777-0.12427c-0.026369-0.03937-0.052429-0.07831-0.08246-0.11505
	c-0.03253-0.03979-0.067989-0.07562-0.104191-0.11151C19.5208,5.40753,19.48876,5.37555,19.45323,5.34619
	c-0.040831-0.03369-0.084169-0.06281-0.128111-0.09192c-0.036501-0.02411-0.072201-0.04852-0.111151-0.06964
	c-0.052191-0.02832-0.10663-0.05066-0.1618-0.07263c-0.026609-0.01056-0.050051-0.0257-0.077579-0.03485l-9.00049-3
	c-0.78418-0.2627-1.63477,0.1626-1.89697,0.94873c-0.26221,0.78564,0.1626,1.63525,0.94873,1.89697l8.288511,2.763L19.41913,14H15.5
	c-0.83203,0-1.62671,0.34552-2.19409,0.9541c-0.56744,0.60852-0.85669,1.42535-0.79858,2.255369l2.10004,30
	C14.71735,48.781189,16.024481,50,17.60004,50h16.799992c1.575562,0,2.882629-1.218811,2.99268-2.790531l1.914921-27.356689
	C41.99176,19.25543,44,16.864071,44,14z M21.496889,17c0.00104,0,0.002081,0.00049,0.003111,0.00049
	c0.00098,0,0.00201-0.00049,0.002991-0.00049H36.5l-0.419979,6H15.91998L15.5,17H21.496889z M17.60004,47l-1.470041-21h19.74
	l-1.469971,21H17.60004z M39.472408,16.59766c0.027222,0.20117,0.034672,0.406071,0.02026,0.61182
	c0.058109-0.830021-0.231079-1.64685-0.798519-2.25537C38.126709,14.34552,37.332031,14,36.5,14H35c0-1.65424,1.34576-3,3-3
	s3,1.34576,3,3C41,15.11652,40.3797,16.08112,39.472408,16.59766z"/>
</svg>
