<?xml version="1.0" encoding="utf-8"?>
<!-- Generator: Adobe Illustrator 18.0.0, SVG Export Plug-In . SVG Version: 6.00 Build 0)  -->
<!DOCTYPE svg PUBLIC "-//W3C//DTD SVG 1.1//EN" "http://www.w3.org/Graphics/SVG/1.1/DTD/svg11.dtd">
<svg version="1.1" id="taxi-filled" xmlns="http://www.w3.org/2000/svg" xmlns:xlink="http://www.w3.org/1999/xlink" x="0px"
	 y="0px" width="52px" height="52px" viewBox="0 0 52 52" enable-background="new 0 0 52 52" xml:space="preserve">
<path id="taxi-filled_1_" d="M43.098633,22.385742l-2.926758-7.530762c-0.931641-2.437012-3.026367-3.834473-5.766602-3.834473
	h-2.407349C31.997986,11.013489,32,11.007019,32,11V8c0-1.650024-1.349976-3-3-3h-6c-1.650024,0-3,1.349976-3,3v3
	c0,0.007019,0.002014,0.013489,0.002075,0.020508h-2.427856c-2.739258,0-4.77832,1.358398-5.743164,3.82666l-2.930664,7.540527
	C7.085938,23.047852,5.012695,24.97998,5,28.05957v11.417969c0,0.828125,0.671875,1.5,1.5,1.5H8v1.822266
	C8,45.116211,10.018555,47,12.5,47s4.5-1.883789,4.5-4.200195v-1.822266h18v1.822266C35,45.116211,37.018555,47,39.5,47
	s4.5-1.883789,4.5-4.200195v-1.822266h1.5c0.828125,0,1.5-0.671875,1.5-1.5V28.060547
	C47.001953,24.979004,44.922852,23.044922,43.098633,22.385742z M14.000183,34
	C12.891663,33.999695,11.995117,33.105774,12,32.009033C11.994812,30.898193,12.891357,30.003662,14.000183,30
	C15.10199,30.003967,15.997986,30.898438,16,32.009033C15.997986,33.105774,15.10199,33.999695,14.000183,34z M35.226501,23.582397
	c-0.181152,0.265076-0.481934,0.423706-0.80304,0.423706H17.514038c-0.32428,0-0.627014-0.161499-0.807495-0.430664
	c-0.181152-0.269165-0.215332-0.61084-0.092468-0.910706l1.09436-2.672913c0.010803-0.026917,0.022827-0.053162,0.036133-0.078857
	c0.233643-0.451233,0.720032-1.389771,2.016418-1.40686h12.513672c1.286255,0.016785,1.796021,1.052856,1.987915,1.442993
	c0.012695,0.025024,0.023438,0.050354,0.033569,0.076599l1.033569,2.654846
	C35.446228,22.979797,35.407654,23.317383,35.226501,23.582397z M38.000183,34
	C36.891663,33.999695,35.995117,33.105774,36,32.009033C35.994812,30.898193,36.891357,30.003662,38.000183,30
	C39.10199,30.003967,39.997986,30.898438,40,32.009033C39.997986,33.105774,39.10199,33.999695,38.000183,34z"/>
</svg>
