<?xml version="1.0" encoding="utf-8"?>
<!-- Generator: Adobe Illustrator 18.0.0, SVG Export Plug-In . SVG Version: 6.00 Build 0)  -->
<!DOCTYPE svg PUBLIC "-//W3C//DTD SVG 1.1//EN" "http://www.w3.org/Graphics/SVG/1.1/DTD/svg11.dtd">
<svg version="1.1" id="setting" xmlns="http://www.w3.org/2000/svg" xmlns:xlink="http://www.w3.org/1999/xlink" x="0px" y="0px"
	 width="52px" height="52px" viewBox="0 0 52 52" enable-background="new 0 0 52 52" xml:space="preserve">
<g id="setting_1_">
	<path d="M29.713869,49.625h-7.427731c-1.574221,0-2.85449-1.28125-2.85449-2.855469v-2.009769
		c-0.696289-0.244141-1.38184-0.52832-2.050779-0.851559l-1.42285,1.422852C14.87988,46.40918,13,46.41016,11.9209,45.332031
		l-5.25244-5.25293c-1.1123-1.112301-1.11279-2.923828-0.00098-4.037109l1.422359-1.422852
		c-0.32227-0.666988-0.60693-1.351559-0.85205-2.049801H5.22998c-1.57471,0-2.85547-1.28125-2.85547-2.855471v-7.427731
		c0-1.574711,1.28076-2.855471,2.85547-2.855471h2.00684c0.24512-0.69775,0.52979-1.383301,0.85254-2.05176l-1.4209-1.421391
		c-0.53906-0.53809-0.83643-1.25488-0.83643-2.01807c0-0.7627,0.29688-1.47949,0.83594-2.01904l5.25195-5.25146
		c1.03955-1.04199,2.99365-1.04395,4.037109,0l1.4209,1.4209c0.667971-0.32275,1.353519-0.60742,2.052731-0.85254V5.23047
		c0-1.57471,1.28027-2.85547,2.85449-2.85547h7.427731c1.574221,0,2.85449,1.28076,2.85449,2.85547V7.2373
		c0.699219,0.24561,1.383789,0.53027,2.051762,0.85254l1.421879-1.42139c1.084961-1.07959,2.959961-1.07715,4.03809,0.00049
		l5.25293,5.25195c0.540039,0.54004,0.83691,1.25684,0.83691,2.01953c-0.00098,0.76318-0.297852,1.47998-0.837891,2.01904
		l-1.420898,1.420409c0.322269,0.66748,0.607422,1.352541,0.852539,2.050779H46.7705c1.574219,0,2.854488,1.28027,2.854488,2.85449
		v7.427731c0,1.574221-1.28027,2.855471-2.854488,2.855471h-2.008789c-0.245121,0.697269-0.53027,1.38184-0.852539,2.049801
		l1.422852,1.422852c1.113281,1.113281,1.113281,2.923828,0,4.037109l-5.25293,5.251949
		c-1.041019,1.041988-2.99316,1.043949-4.037109,0l-1.422852-1.421879c-0.666988,0.322269-1.352539,0.607422-2.050781,0.851559
		v2.009769C32.568359,48.34375,31.28809,49.625,29.713869,49.625z M22.431641,46.625h7.136721v-2.960941
		c0-0.668949,0.443359-1.257809,1.08691-1.442379c1.220699-0.349609,2.404299-0.84082,3.518549-1.460941
		c0.583012-0.327148,1.314449-0.22559,1.790039,0.25l2.09668,2.095699l5.047852-5.046879l-2.095699-2.095699
		c-0.473629-0.473629-0.576172-1.203121-0.25098-1.78809c0.620121-1.117191,1.112301-2.302731,1.463871-3.522461
		c0.185551-0.64258,0.772461-1.084961,1.44141-1.084961H46.625v-7.137699h-2.958012c-0.668949,0-1.25684-0.442869-1.44141-1.085939
		c-0.351559-1.221189-0.84375-2.40576-1.462891-3.52051c-0.326172-0.585449-0.223629-1.31641,0.25-1.790039l2.095699-2.09473
		l-5.048832-5.047359l-2.095699,2.0957c-0.47559,0.47363-1.207031,0.57373-1.790039,0.24951
		c-1.113281-0.61963-2.29785-1.11182-3.52051-1.462399c-0.64258-0.18457-1.085939-0.77295-1.085939-1.44189V5.375h-7.136721v2.95801
		c0,0.66895-0.443359,1.25732-1.08691,1.44189c-1.22168,0.35059-2.40625,0.84277-3.52051,1.462399
		c-0.58301,0.32471-1.314449,0.22607-1.790039-0.25l-2.09473-2.09473l-5.046391,5.046391l2.09473,2.09473
		c0.47363,0.473631,0.57617,1.203609,0.25049,1.789061c-0.62109,1.11768-1.11328,2.302731-1.46289,3.521481
		c-0.18457,0.64307-0.77295,1.08643-1.44189,1.08643h-2.958v7.13867H8.3335c0.66895,0,1.25732,0.443359,1.44189,1.08691
		c0.3501,1.21973,0.8418,2.403318,1.462399,3.51758c0.32617,0.584961,0.22412,1.31641-0.25,1.790039L8.8916,38.059559
		l5.04785,5.047852l2.09668-2.09668c0.47266-0.47559,1.2041-0.576172,1.789061-0.25098
		c1.12109,0.623051,2.304689,1.115231,3.518549,1.46191c0.644529,0.18457,1.087891,0.772461,1.087891,1.442379V46.625H22.431641z"/>
	<path d="M25.999929,21.5c2.48131,0,4.5,2.01869,4.5,4.5s-2.01869,4.5-4.5,4.5s-4.5-2.01869-4.5-4.5S23.51862,21.5,25.999929,21.5
		 M25.999929,18.5c-4.142139,0-7.5,3.357861-7.5,7.5s3.357861,7.5,7.5,7.5s7.500002-3.357861,7.500002-7.5
		S30.142071,18.5,25.999929,18.5L25.999929,18.5z"/>
</g>
</svg>
