<?xml version="1.0" encoding="utf-8"?>
<!-- Generator: Adobe Illustrator 18.0.0, SVG Export Plug-In . SVG Version: 6.00 Build 0)  -->
<!DOCTYPE svg PUBLIC "-//W3C//DTD SVG 1.1//EN" "http://www.w3.org/Graphics/SVG/1.1/DTD/svg11.dtd">
<svg version="1.1" id="statement-paid" xmlns="http://www.w3.org/2000/svg" xmlns:xlink="http://www.w3.org/1999/xlink" x="0px"
	 y="0px" width="52px" height="52px" viewBox="0 0 52 52" enable-background="new 0 0 52 52" xml:space="preserve">
<g id="statement-paid_1_">
	<path d="M45.5,24.5c-0.82843,0-1.5,0.67157-1.5,1.5c0,9.925232-8.074768,18-18,18S8,35.925228,8,26S16.07477,8,26,8
		c5.725161,0,10.829041,2.69128,14.127869,6.870359l-2.332401,0.00134c-0.827389,0.00262-1.500549,0.67267-1.49884,1.50073
		c-0.000118,0.828739,0.671631,1.499691,1.50037,1.499331l6.000061-0.003481c0.073002-0.00012,0.144291-0.00543,0.21484-0.015619
		c0.726871-0.104549,1.28516-0.72949,1.284-1.485109l-0.002991-6.000179c0.000179-0.82825-0.671631-1.49969-1.500309-1.499331
		c-0.825439,0.00281-1.49976,0.67157-1.49884,1.500731l0.001221,2.405519C38.445621,8.03528,32.58136,5,26,5
		C14.40198,5,5,14.40198,5,26s9.40198,21,21,21c11.5979,0,21-9.401981,21-21C47,25.17157,46.32843,24.5,45.5,24.5z"/>
	<path d="M31.365231,20.035641l-7.34894,8.75897l-3.4704-3.4704c-0.585939-0.585939-1.53516-0.585939-2.12109,0
		c-0.585939,0.585449-0.585939,1.535641,0,2.12109l4.615231,4.615231C23.33301,32.353519,23.716801,32.5,24.10059,32.5
		c0.00317,0,0.0061-0.00256,0.009279-0.002621C24.114321,32.497501,24.118589,32.5,24.123051,32.5
		c0.428711,0,0.853519-0.182621,1.150391-0.536131l8.390621-9.99951c0.53223-0.634769,0.449219-1.581051-0.185551-2.113279
		C32.84277,19.317869,31.897461,19.401859,31.365231,20.035641z"/>
</g>
</svg>
