<?xml version="1.0" encoding="utf-8"?>
<!-- Generator: Adobe Illustrator 18.0.0, SVG Export Plug-In . SVG Version: 6.00 Build 0)  -->
<!DOCTYPE svg PUBLIC "-//W3C//DTD SVG 1.1//EN" "http://www.w3.org/Graphics/SVG/1.1/DTD/svg11.dtd">
<svg version="1.1" id="time-filled" xmlns="http://www.w3.org/2000/svg" xmlns:xlink="http://www.w3.org/1999/xlink" x="0px"
	 y="0px" width="52px" height="52px" viewBox="0 0 52 52" enable-background="new 0 0 52 52" xml:space="preserve">
<path id="time-filled_1_" d="M26,2C12.745178,2,2,12.745178,2,26s10.745178,24,24,24s24-10.745178,24-24S39.254822,2,26,2z
	 M33.583984,35.949219c-0.292969,0.292969-0.676758,0.439453-1.060547,0.439453s-0.767578-0.146484-1.060547-0.439453
	l-7.77832-7.777344c-0.228516-0.228516-0.34082-0.516357-0.391113-0.812317c-0.010437-0.042175-0.018188-0.084778-0.024963-0.128235
	c-0.004333-0.053589-0.017334-0.104309-0.015991-0.15802C23.251282,27.048523,23.245117,27.025085,23.245117,27V16
	c0-0.828613,0.671875-1.5,1.5-1.5s1.5,0.671387,1.5,1.5v10.490173l7.338867,7.337952
	C34.169922,34.414062,34.169922,35.363281,33.583984,35.949219z"/>
</svg>
