<?xml version="1.0" encoding="utf-8"?>
<!-- Generator: Adobe Illustrator 18.0.0, SVG Export Plug-In . SVG Version: 6.00 Build 0)  -->
<!DOCTYPE svg PUBLIC "-//W3C//DTD SVG 1.1//EN" "http://www.w3.org/Graphics/SVG/1.1/DTD/svg11.dtd">
<svg version="1.1" id="thumbs-down-filled" xmlns="http://www.w3.org/2000/svg" xmlns:xlink="http://www.w3.org/1999/xlink" x="0px"
	 y="0px" width="52px" height="52px" viewBox="0 0 52 52" enable-background="new 0 0 52 52" xml:space="preserve">
<path id="thumbs-down-filled_1_" d="M43.667725,17.190639C43.877869,16.671719,44,16.108425,44,15.516444
	c0-2.068848-1.422363-3.805725-3.332275-4.325806C40.877869,10.671718,41,10.108424,41,9.516444c0-2.474976-2.025024-4.5-4.5-4.5
	h-4.900391l-1.144531-0.005859c-0.485352-0.00293-1.010742-0.006836-1.566406-0.006836
	c-3.037109,0-7.009766,0.107422-10.758789,0.949219c-1.891052,0.42511-3.327576,1.199524-4.415527,2.044922H8.132812
	C6.405273,7.99789,5,9.403163,5,11.130702v14.711427c0,1.727539,1.405273,3.132812,3.132812,3.132812h4.791016
	c0.188477,0.121582,0.492188,0.498535,0.597656,0.629395c0.083984,0.103027,0.154297,0.188965,0.208984,0.248535
	c2.302734,2.535645,3.831055,3.291992,6.144531,4.436035c0.770508,0.381348,1.652344,0.816895,2.713867,1.395508
	c0.3125,0.17041,0.806641,0.599609,1.283203,1.014648c0.571289,0.496582,1.217773,1.059082,1.884766,1.476562
	c0.898438,0.562012,2.199219,1.842285,2.594727,2.45752c0.841797,1.312012,1.130859,2.335449,1.120117,2.855469
	c-0.053711,2.679688,1.614258,3.324707,2.613281,3.470703c1.34082,0.199707,2.673828-0.166504,3.638672-1.005371
	c1.283203-1.115234,1.925781-2.983398,1.90918-5.552246c-0.023132-3.450317-1.810364-6.39978-3.305542-8.385254H39.5
	c2.474976,0,4.5-2.024963,4.5-4.5c0-0.591919-0.122131-1.155273-0.332275-1.674194C45.577637,25.32217,47,23.585354,47,21.516445
	C47,19.447598,45.577637,17.71072,43.667725,17.190639z"/>
</svg>
