<?xml version="1.0" encoding="utf-8"?>
<!-- Generator: Adobe Illustrator 18.0.0, SVG Export Plug-In . SVG Version: 6.00 Build 0)  -->
<!DOCTYPE svg PUBLIC "-//W3C//DTD SVG 1.1//EN" "http://www.w3.org/Graphics/SVG/1.1/DTD/svg11.dtd">
<svg version="1.1" id="train" xmlns="http://www.w3.org/2000/svg" xmlns:xlink="http://www.w3.org/1999/xlink" x="0px" y="0px"
	 width="52px" height="52px" viewBox="0 0 52 52" enable-background="new 0 0 52 52" xml:space="preserve">
<g id="train_1_">
	<path d="M17.02631,26h17.947392C36.088131,26,37,25.21246,37,24.25l-1.54388-11.5c-0.190491-1.01562-0.9118-1.75-2.02631-1.75
		H18.57019c-1.1145,0-1.835819,0.76562-2.02631,1.75L15,24.25C15,25.21246,15.91187,26,17.02631,26z M19.40295,14h13.194088
		l1.208252,9H18.1947L19.40295,14z"/>
	<circle cx="16" cy="33" r="2"/>
	<path d="M43.56934,47.448238L40.12109,44H41c1.654301,0,3-1.345699,3-3V20c0-9.92529-8.075199-18-18-18S8,10.07471,8,20v21
		c0,1.654301,1.3457,3,3,3h0.90918l-3.44824,3.448238c-0.58594,0.585941-0.58594,1.53516,0,2.12109
		c0.29297,0.292969,0.67676,0.439449,1.06055,0.439449s0.76758-0.146481,1.06055-0.439449L16.151369,44h19.727537l5.56934,5.56934
		c0.292969,0.292969,0.676762,0.439449,1.060551,0.439449s0.767578-0.146481,1.060551-0.439449
		C44.15527,48.983398,44.15527,48.03418,43.56934,47.448238z M11,20c0-8.271,6.728519-15,15-15s15,6.729,15,15l-0.00391,21H11V20z"
		/>
	<circle cx="36" cy="33" r="2"/>
</g>
</svg>
