<?xml version="1.0" encoding="utf-8"?>
<!-- Generator: Adobe Illustrator 18.0.0, SVG Export Plug-In . SVG Version: 6.00 Build 0)  -->
<!DOCTYPE svg PUBLIC "-//W3C//DTD SVG 1.1//EN" "http://www.w3.org/Graphics/SVG/1.1/DTD/svg11.dtd">
<svg version="1.1" id="Layer_1" xmlns="http://www.w3.org/2000/svg" xmlns:xlink="http://www.w3.org/1999/xlink" x="0px" y="0px"
	 width="52px" height="52px" viewBox="0 0 52 52" enable-background="new 0 0 52 52" xml:space="preserve">
<path id="telephone" d="M37.030273,47c-0.163086,0-0.328125-0.003906-0.495117-0.011719
	c-2.621094-0.126953-5.293945-0.899414-8.415039-2.431641c-5.663574-2.762695-10.59668-6.62207-14.658203-11.46875
	c-3.243164-3.783203-5.664551-7.802246-7.186523-11.932617c-0.994629-2.692871-1.380859-4.852051-1.251465-7.000977
	c0.11377-1.771973,0.825195-3.291992,2.11377-4.525391c0.529785-0.507324,1.05957-1.037598,1.589844-1.567871
	c0.54248-0.54248,1.084961-1.084961,1.627441-1.60498c1.889647-1.889648,4.723633-1.911621,6.658202,0.021973l2.592773,2.592772
	c0.283691,0.28418,0.567383,0.5625,0.849121,0.839355c0.572266,0.562012,1.137695,1.118164,1.682617,1.693848
	c2.041016,2.040527,2.041016,4.715332-0.028809,6.785156c-0.914062,0.955078-1.880859,1.890137-2.828125,2.798828
	c0.561035,1.210938,1.349609,2.435059,2.439941,3.777344c2.324219,2.870605,4.895508,5.214355,7.644531,6.967285
	c0.380859,0.227539,0.835938,0.447266,1.318359,0.680664c0.047852,0.022461,0.095703,0.045898,0.142578,0.068359
	c0.924805-0.954102,1.881836-1.912109,2.838867-2.868164c1.93457-1.936523,4.748047-1.936523,6.681641-0.000977l1.663086,1.652344
	c1.166016,1.15625,2.338867,2.319336,3.491211,3.501953C46.476562,35.941406,47,37.112305,47,38.337891
	c0,1.224609-0.523438,2.395508-1.512695,3.384766c-0.286133,0.286133-0.576172,0.568359-0.865234,0.850586
	c-0.705078,0.6875-1.371094,1.335938-1.96875,2.022461C41.176758,46.22168,39.344727,47,37.030273,47z M13.672852,8
	c-0.511719,0-0.945801,0.326172-1.219238,0.600098c-0.549805,0.527344-1.077148,1.054688-1.604492,1.582031
	c-0.54541,0.545898-1.091309,1.091309-1.636719,1.61377c-0.749512,0.717285-1.128906,1.525391-1.194336,2.544922
	c-0.102539,1.70752,0.228027,3.490723,1.072266,5.775879c1.417969,3.849609,3.59668,7.45752,6.660156,11.030762
	c3.800293,4.535156,8.402344,8.135742,13.687988,10.713867c2.745117,1.347656,5.043945,2.024414,7.239258,2.130859
	C36.793945,43.99707,36.913086,44,37.030273,44c1.460938,0,2.50293-0.430664,3.380859-1.396484
	c0.657227-0.755859,1.399414-1.479492,2.117188-2.178711c0.280273-0.273438,0.560547-0.546875,0.837891-0.823242
	C43.655273,39.3125,44,38.858398,44,38.337891c0-0.521484-0.344727-0.974609-0.633789-1.263672
	c-1.154297-1.18457-2.31543-2.334961-3.46875-3.478516l-1.671875-1.662109c-0.273438-0.273438-0.707031-0.599609-1.21875-0.599609
	c-0.512695,0-0.946289,0.326172-1.219727,0.599609c-1.06543,1.06543-2.130859,2.130859-3.151367,3.195312
	C32.436523,35.329102,31.892578,35.875,31.025391,35.875c-0.344727,0-0.683594-0.085938-1.037109-0.262695
	c-0.204102-0.102539-0.40625-0.200195-0.607422-0.296875c-0.522461-0.251953-1.061523-0.512695-1.594727-0.832031
	c-3.056152-1.948242-5.869141-4.507812-8.395508-7.628418c-1.396484-1.719238-2.374512-3.297852-3.077148-4.965332
	c-0.363281-0.967773-0.182129-1.810059,0.500977-2.492676c1.063477-1.019531,2.139648-2.050781,3.150879-3.105957
	c0.32666-0.327148,0.689453-0.797363,0.689453-1.309082S20.291992,14,19.987793,13.695801
	c-0.548828-0.579102-1.088867-1.108887-1.635254-1.645508c-0.288086-0.283203-0.578125-0.567871-0.868164-0.85791L14.89209,8.599609
	C14.618652,8.326172,14.18457,8,13.672852,8z"/>
</svg>
