<?xml version="1.0" encoding="utf-8"?>
<!-- Generator: Adobe Illustrator 18.0.0, SVG Export Plug-In . SVG Version: 6.00 Build 0)  -->
<!DOCTYPE svg PUBLIC "-//W3C//DTD SVG 1.1//EN" "http://www.w3.org/Graphics/SVG/1.1/DTD/svg11.dtd">
<svg version="1.1" id="train-filled" xmlns="http://www.w3.org/2000/svg" xmlns:xlink="http://www.w3.org/1999/xlink" x="0px"
	 y="0px" width="52px" height="52px" viewBox="0 0 52 52" enable-background="new 0 0 52 52" xml:space="preserve">
<path id="train-filled_1_" d="M43.56934,47.448238L40.12109,44H41c1.654301,0,3-1.345699,3-3V20c0-9.92529-8.075199-18-18-18
	S8,10.07471,8,20v21c0,1.654301,1.3457,3,3,3h0.90918l-3.44824,3.448238c-0.58594,0.585941-0.58594,1.53516,0,2.12109
	c0.29297,0.292969,0.67676,0.439449,1.06055,0.439449s0.76758-0.146481,1.06055-0.439449L16.151369,44h19.727537l5.56934,5.56934
	c0.292969,0.292969,0.676762,0.439449,1.060551,0.439449s0.767578-0.146481,1.060551-0.439449
	C44.15527,48.983398,44.15527,48.03418,43.56934,47.448238z M16.54388,12.75c0.190491-0.98438,0.9118-1.75,2.02631-1.75H33.42981
	c1.114502,0,1.835819,0.73438,2.02631,1.75L37,24.25c0,0.96246-0.911869,1.75-2.02631,1.75H17.02631
	C15.91187,26,15,25.21246,15,24.25L16.54388,12.75z M16,35c-1.10455,0-2-0.895451-2-2c0-1.10461,0.89545-2,2-2s2,0.89539,2,2
	C18,34.104549,17.104549,35,16,35z M34,33c0-1.10461,0.895451-2,2-2s2,0.89539,2,2c0,1.104549-0.895451,2-2,2S34,34.104549,34,33z"
	/>
</svg>
