<?xml version="1.0" encoding="utf-8"?>
<!-- Generator: Adobe Illustrator 18.0.0, SVG Export Plug-In . SVG Version: 6.00 Build 0)  -->
<!DOCTYPE svg PUBLIC "-//W3C//DTD SVG 1.1//EN" "http://www.w3.org/Graphics/SVG/1.1/DTD/svg11.dtd">
<svg version="1.1" id="travel-bag-filled" xmlns="http://www.w3.org/2000/svg" xmlns:xlink="http://www.w3.org/1999/xlink" x="0px"
	 y="0px" width="52px" height="52px" viewBox="0 0 52 52" enable-background="new 0 0 52 52" xml:space="preserve">
<g id="travel-bag-filled_1_">
	<path d="M36,9.49957c0-1.64996-1.349979-3-3-3H19c-1.650021,0-3,1.35004-3,3v3h-2v30h0.00793
		c-0.00043,0.42548,0.08142,0.856869,0.27313,1.267941c0.3501,0.75079,0.97144,1.288639,1.69287,1.551208
		c0.7215,0.26263,1.543091,0.25,2.293949-0.100159c1.09058-0.508541,1.723141-1.590149,1.72418-2.71899h12.015139
		c-0.000431,0.42548,0.081421,0.856869,0.273129,1.267941c0.350159,0.75079,0.971439,1.288639,1.692871,1.551208
		c0.7215,0.26263,1.543152,0.25,2.293949-0.100159c1.09058-0.508541,1.723141-1.590149,1.724178-2.71899H38v-30h-2V9.49957z
		 M19,9.49957h14v3H19V9.49957z"/>
	<path d="M44,12.49957h-3v30h3c1.650021,0,3-1.349979,3-3v-24C47,13.84961,45.650021,12.49957,44,12.49957z"/>
	<path d="M5,15.49957v24c0,1.650021,1.34998,3,3,3h3v-30H8C6.34998,12.49957,5,13.84961,5,15.49957z"/>
</g>
</svg>
