<?xml version="1.0" encoding="utf-8"?>
<!-- Generator: Adobe Illustrator 18.0.0, SVG Export Plug-In . SVG Version: 6.00 Build 0)  -->
<!DOCTYPE svg PUBLIC "-//W3C//DTD SVG 1.1//EN" "http://www.w3.org/Graphics/SVG/1.1/DTD/svg11.dtd">
<svg version="1.1" id="trends-filled" xmlns="http://www.w3.org/2000/svg" xmlns:xlink="http://www.w3.org/1999/xlink" x="0px"
	 y="0px" width="52px" height="52px" viewBox="0 0 52 52" enable-background="new 0 0 52 52" xml:space="preserve">
<path id="trends-filled_1_" d="M47,44h1.5c0.828121,0,1.5-0.671879,1.5-1.5S49.328121,41,48.5,41H47V25.959471
	C47,24.327641,45.654301,23,44,23h-6c-1.654301,0-3,1.327641-3,2.959471V41h-3V10.97754C32,9.33594,30.654301,8,29,8h-6
	c-1.654301,0-3,1.33594-3,2.97754V41h-3V19.959471C17,18.327641,15.6543,17,14,17H8c-1.6543,0-3,1.327641-3,2.959471V41H3.5
	C2.67188,41,2,41.671879,2,42.5S2.67188,44,3.5,44H5H47z"/>
</svg>
