<?xml version="1.0" encoding="utf-8"?>
<!-- Generator: Adobe Illustrator 18.0.0, SVG Export Plug-In . SVG Version: 6.00 Build 0)  -->
<!DOCTYPE svg PUBLIC "-//W3C//DTD SVG 1.1//EN" "http://www.w3.org/Graphics/SVG/1.1/DTD/svg11.dtd">
<svg version="1.1" id="time" xmlns="http://www.w3.org/2000/svg" xmlns:xlink="http://www.w3.org/1999/xlink" x="0px" y="0px"
	 width="52px" height="52px" viewBox="0 0 52 52" enable-background="new 0 0 52 52" xml:space="preserve">
<g>
	<path d="M26,2C12.745178,2,2,12.745178,2,26s10.745178,24,24,24s24-10.745178,24-24S39.254822,2,26,2z M26,47
		C14.420532,47,5,37.579407,5,26C5,14.420532,14.420532,5,26,5s21,9.420532,21,21S37.579468,47,26,47z"/>
	<path d="M26.245117,26.490173V16c0-0.828613-0.671387-1.5-1.5-1.5s-1.5,0.671387-1.5,1.5v11
		c0,0.025146,0.006165,0.048523,0.007385,0.073364c-0.001404,0.053528,0.011536,0.104004,0.015869,0.157471
		c0.006836,0.043823,0.014587,0.086731,0.025146,0.129211c0.050293,0.295776,0.162659,0.583435,0.391052,0.811829l7.77832,7.777344
		c0.292969,0.292969,0.676758,0.439453,1.060547,0.439453s0.767578-0.146484,1.060547-0.439453
		c0.585938-0.585938,0.585938-1.535156,0-2.121094L26.245117,26.490173z"/>
</g>
</svg>
