<?xml version="1.0" encoding="utf-8"?>
<!-- Generator: Adobe Illustrator 18.0.0, SVG Export Plug-In . SVG Version: 6.00 Build 0)  -->
<!DOCTYPE svg PUBLIC "-//W3C//DTD SVG 1.1//EN" "http://www.w3.org/Graphics/SVG/1.1/DTD/svg11.dtd">
<svg version="1.1" id="unlock-filled" xmlns="http://www.w3.org/2000/svg" xmlns:xlink="http://www.w3.org/1999/xlink" x="0px"
	 y="0px" width="52px" height="52px" viewBox="0 0 52 52" enable-background="new 0 0 52 52" xml:space="preserve">
<path id="unlock-filled_1_" d="M41,18.994141h-6v-6.988279c0-4.9624-4.037109-9-9-9c-4.640751,0-8.450741,3.53632-8.92798,8.05212
	C17.029539,11.19684,17,11.34137,17,11.49414c0,0.82843,0.67157,1.5,1.5,1.5s1.5-0.67157,1.5-1.5h0.025881
	C20.286869,8.42468,22.86414,6.00586,26,6.00586c3.30859,0,6,2.69141,6,6v6.976561H22v0.011721H11c-1.65002,0-3,1.349979-3,3v24
	c0,1.64996,1.34998,3,3,3h30c1.650021,0,3-1.35004,3-3v-24C44,20.34412,42.650021,18.994141,41,18.994141z M27.5,33.57806v4.91608
	c0,0.828121-0.671881,1.5-1.5,1.5s-1.5-0.671879-1.5-1.5v-4.91608c-0.892941-0.519711-1.5-1.476318-1.5-2.58392
	c0-1.65686,1.34314-3,3-3s3,1.34314,3,3C29,32.101749,28.392941,33.05835,27.5,33.57806z"/>
</svg>
