<?xml version="1.0" encoding="utf-8"?>
<!-- Generator: Adobe Illustrator 18.0.0, SVG Export Plug-In . SVG Version: 6.00 Build 0)  -->
<!DOCTYPE svg PUBLIC "-//W3C//DTD SVG 1.1//EN" "http://www.w3.org/Graphics/SVG/1.1/DTD/svg11.dtd">
<svg version="1.1" id="thumbs-up" xmlns="http://www.w3.org/2000/svg" xmlns:xlink="http://www.w3.org/1999/xlink" x="0px" y="0px"
	 width="52px" height="52px" viewBox="0 0 52 52" enable-background="new 0 0 52 52" xml:space="preserve">
<path id="thumbs-up_1_" d="M47,30.5c0-2.068848-1.422363-3.805725-3.332275-4.325806C43.877869,25.655273,44,25.091919,44,24.5
	c0-2.474976-2.025024-4.5-4.5-4.5h-5.172729c1.495178-1.985474,3.28241-4.934937,3.305542-8.385254
	c0.016602-2.568848-0.625977-4.437012-1.90918-5.552246c-0.964844-0.838867-2.296875-1.205078-3.638672-1.005371
	c-0.999023,0.145996-2.666992,0.791016-2.613281,3.470703c0.010742,0.52002-0.27832,1.543457-1.120117,2.855469
	c-0.395508,0.615234-1.696289,1.895508-2.594727,2.45752c-0.666992,0.41748-1.313477,0.97998-1.884766,1.476562
	c-0.476562,0.415039-0.970703,0.844238-1.283203,1.014648c-1.061523,0.578613-1.943359,1.01416-2.713867,1.395508
	c-2.313477,1.144043-3.841797,1.900391-6.14502,4.436035c-0.053711,0.05957-0.124512,0.145508-0.208008,0.248535
	c-0.105469,0.130859-0.410156,0.507812-0.598145,0.629395H8.132812C6.405273,23.041504,5,24.446777,5,26.174316v14.711426
	c0,1.727539,1.405273,3.132812,3.132812,3.132812h5.581543c1.087952,0.845398,2.524475,1.619812,4.415527,2.044922
	c3.749023,0.841797,7.72168,0.949219,10.758789,0.949219c0.555664,0,1.081055-0.003906,1.566406-0.006836L31.599609,47H36.5
	c2.474976,0,4.5-2.025024,4.5-4.5c0-0.591919-0.122131-1.155273-0.332275-1.674194C42.577637,40.305725,44,38.568848,44,36.5
	c0-0.591919-0.122131-1.155273-0.332275-1.674194C45.577637,34.305725,47,32.568848,47,30.5z M41,24.5
	c0,0.813049-0.68689,1.5-1.5,1.5h-9c-0.813049,0-1.5-0.686951-1.5-1.5c0-0.81311,0.686951-1.5,1.5-1.5h9
	C40.31311,23,41,23.68689,41,24.5z M13.567871,39.229492c-0.290039-0.775391-1.154297-1.167969-1.930664-0.879883
	c-0.775879,0.291016-1.169434,1.155273-0.878906,1.930664c0.016296,0.043701,0.127197,0.325073,0.355225,0.738281H8.132812
	C8.05957,41.018555,8,40.958984,8,40.885742V26.174316c0-0.073242,0.05957-0.132812,0.132812-0.132812h4.898438
	c1.416016,0,2.367188-1.178223,2.824219-1.744629l0.095703-0.116699c1.920898-2.115234,3.035156-2.666016,5.253906-3.763672
	c0.800781-0.395996,1.71582-0.849121,2.820312-1.450684c0.599609-0.327148,1.19043-0.84082,1.81543-1.384766
	c0.511719-0.444824,1.040039-0.904785,1.507812-1.196777c1.207031-0.755371,2.855469-2.334473,3.527344-3.379883
	c1.054688-1.643555,1.621094-3.254883,1.595703-4.537109c-0.004883-0.216797,0.010742-0.355957,0.025391-0.437988
	c0.007812-0.001465,0.015625-0.002441,0.023438-0.003906c0.285156-0.041016,0.821289-0.058594,1.235352,0.30127
	c0.576172,0.500488,0.887695,1.661133,0.876953,3.268555c-0.022461,3.437012-2.511719,6.42627-3.848633,8.032227
	c-0.113342,0.136475-0.212219,0.256714-0.309021,0.375061C28.011719,20.016357,26,22.033508,26,24.5
	c0,0.505676,0.103271,0.984375,0.258911,1.439087c-0.173706,0.201172-0.300171,0.447266-0.346802,0.727905
	c-0.051758,0.312012-0.046875,0.618164-0.041016,0.941406c0.023438,1.34668,0.058594,3.381836-5.608398,5.079102
	c-0.792969,0.237305-1.244141,1.073242-1.005859,1.867188c0.194336,0.649414,0.790039,1.069336,1.435547,1.069336
	c0.142578,0,0.288086-0.020508,0.431641-0.063477c2.642822-0.79126,4.373108-1.766602,5.523743-2.775879
	c0.153015,0.256287,0.327942,0.494995,0.527039,0.715332C26.453003,34.298889,26,35.345154,26,36.5s0.453003,2.201111,1.174805,3
	C26.453003,40.298889,26,41.345154,26,42.5c0,0.518311,0.106506,1.009094,0.269653,1.47345
	c-2.364624-0.073669-5.002563-0.280396-7.481567-0.837708C14.802246,42.240234,13.611816,39.339844,13.567871,39.229492z M36.5,44
	h-6c-0.813049,0-1.5-0.686951-1.5-1.5c0-0.81311,0.686951-1.5,1.5-1.5h6c0.81311,0,1.5,0.68689,1.5,1.5
	C38,43.313049,37.31311,44,36.5,44z M39.5,38h-3h-6c-0.813049,0-1.5-0.686951-1.5-1.5c0-0.81311,0.686951-1.5,1.5-1.5h9
	c0.81311,0,1.5,0.68689,1.5,1.5C41,37.313049,40.31311,38,39.5,38z M42.5,32h-3h-9c-0.813049,0-1.5-0.686951-1.5-1.5
	c0-0.81311,0.686951-1.5,1.5-1.5h9h3c0.81311,0,1.5,0.68689,1.5,1.5C44,31.313049,43.31311,32,42.5,32z"/>
</svg>
