<?xml version="1.0" encoding="utf-8"?>
<!-- Generator: Adobe Illustrator 18.0.0, SVG Export Plug-In . SVG Version: 6.00 Build 0)  -->
<!DOCTYPE svg PUBLIC "-//W3C//DTD SVG 1.1//EN" "http://www.w3.org/Graphics/SVG/1.1/DTD/svg11.dtd">
<svg version="1.1" id="upload-filled" xmlns="http://www.w3.org/2000/svg" xmlns:xlink="http://www.w3.org/1999/xlink" x="0px"
	 y="0px" width="52px" height="52px" viewBox="0 0 52 52" enable-background="new 0 0 52 52" xml:space="preserve">
<g id="upload-filled_1_">
	<path d="M27.76758,18.72949c-0.976561-0.976561-2.55859-0.976561-3.53516,0l-11,11c-0.97656,0.976561-0.97656,2.558588,0,3.535158
		C13.7207,33.75293,14.36035,33.99707,15,33.99707s1.279301-0.244141,1.76758-0.732422L23.5,26.53223V44.5
		c0,1.380859,1.119141,2.5,2.5,2.5s2.5-1.119141,2.5-2.5V26.53223l6.732422,6.732418
		C35.720699,33.75293,36.360352,33.99707,37,33.99707s1.279301-0.244141,1.767578-0.732422
		c0.976559-0.976559,0.976559-2.55859,0-3.53516L27.76758,18.72949z"/>
	<path d="M43,9H9c-2.20605,0-4,1.79443-4,4v7.5C5,21.87842,6.12109,23,7.5,23s2.5-1.12158,2.5-2.49365L10.00391,14H42v6.5
		c0,1.37842,1.12109,2.5,2.5,2.5s2.5-1.12158,2.5-2.5V13C47,10.79443,45.206051,9,43,9z"/>
</g>
</svg>
