<?xml version="1.0" encoding="utf-8"?>
<!-- Generator: Adobe Illustrator 18.0.0, SVG Export Plug-In . SVG Version: 6.00 Build 0)  -->
<!DOCTYPE svg PUBLIC "-//W3C//DTD SVG 1.1//EN" "http://www.w3.org/Graphics/SVG/1.1/DTD/svg11.dtd">
<svg version="1.1" id="linkedin" xmlns="http://www.w3.org/2000/svg" xmlns:xlink="http://www.w3.org/1999/xlink" x="0px" y="0px"
	 width="52px" height="52px" viewBox="0 0 52 52" enable-background="new 0 0 52 52" xml:space="preserve">
<g id="gas-station">
	<g>
		<g>
			<path d="M15.343052,22.304863h4.568592V37h-4.568592V22.304863z M17.627369,15c1.460102,0,2.646835,1.186708,2.646835,2.649349
				c0,1.461246-1.186733,2.647921-2.646835,2.647921c-1.463482,0-2.646843-1.186674-2.646843-2.647921
				C14.980526,16.186708,16.163887,15,17.627369,15"/>
			<path d="M22.776253,22.304863h4.380371v2.009476h0.062956c0.60976-1.155823,2.099403-2.373404,4.32135-2.373404
				c4.624891,0,5.478544,3.042469,5.478544,6.999378V37h-4.565243v-7.146444c0-1.704567-0.030109-3.896463-2.373405-3.896463
				c-2.376768,0-2.739328,1.857792-2.739328,3.773975V37h-4.565245V22.304863z"/>
		</g>
	</g>
	<g>
		<path d="M26,5c11.579441,0,21,9.42056,21,21s-9.420559,21-21,21S5,37.579437,5,26S14.420559,5,26,5 M26,2
			C12.745159,2,2,12.74516,2,26s10.745159,24,24,24c13.254826,0,24-10.745171,24-24S39.254826,2,26,2L26,2z"/>
	</g>
</g>
</svg>
