<?xml version="1.0" encoding="utf-8"?>
<!-- Generator: Adobe Illustrator 18.0.0, SVG Export Plug-In . SVG Version: 6.00 Build 0)  -->
<!DOCTYPE svg PUBLIC "-//W3C//DTD SVG 1.1//EN" "http://www.w3.org/Graphics/SVG/1.1/DTD/svg11.dtd">
<svg version="1.1" id="twitter" xmlns="http://www.w3.org/2000/svg" xmlns:xlink="http://www.w3.org/1999/xlink" x="0px" y="0px"
	 width="52px" height="52px" viewBox="0 0 52 52" enable-background="new 0 0 52 52" xml:space="preserve">
<g id="twitter_1_">
	<path d="M26,5c11.579441,0,21,9.42056,21,21s-9.420559,21-21,21S5,37.579437,5,26S14.420559,5,26,5 M26,2
		C12.745159,2,2,12.74516,2,26s10.745159,24,24,24c13.254826,0,24-10.745171,24-24S39.254826,2,26,2L26,2z"/>
	<path d="M39.535465,17.604296c-0.995998,0.441715-2.066349,0.74032-3.189896,0.87454
		c1.146748-0.687334,2.027386-1.775778,2.442032-3.072707c-1.073067,0.636477-2.261688,1.098693-3.526802,1.347796
		C34.247692,15.674472,32.80426,15,31.206898,15c-3.06739,0-5.55409,2.48671-5.55409,5.553802
		c0,0.435339,0.049124,0.859163,0.143787,1.265688c-4.61582-0.231596-8.708208-2.442705-11.4475-5.802896
		c-0.478077,0.820299-0.751926,1.774323-0.751926,2.792175c0,1.926823,0.980522,3.626793,2.470749,4.622791
		c-0.910416-0.028816-1.766788-0.278692-2.515621-0.694693c-0.000389,0.023211-0.000477,0.046421-0.000477,0.069818
		c0,2.690987,1.914436,4.935751,4.4552,5.44594c-0.466087,0.126865-0.956738,0.194752-1.463242,0.194752
		c-0.357887,0-0.705814-0.034815-1.044937-0.099604c0.706772,2.206474,2.757854,3.812256,5.188194,3.857121
		c-1.90081,1.489552-4.295563,2.377441-6.897629,2.377441c-0.448299,0-0.890404-0.026299-1.324871-0.077553
		C14.922428,36.080582,17.841763,37,20.978191,37c10.215744,0,15.802036-8.462891,15.802036-15.802183
		c0-0.240788-0.005409-0.480305-0.016052-0.718477C37.849236,19.696272,38.790886,18.718067,39.535465,17.604296z"/>
</g>
</svg>
