<?xml version="1.0" encoding="utf-8"?>
<!-- Generator: Adobe Illustrator 18.0.0, SVG Export Plug-In . SVG Version: 6.00 Build 0)  -->
<!DOCTYPE svg PUBLIC "-//W3C//DTD SVG 1.1//EN" "http://www.w3.org/Graphics/SVG/1.1/DTD/svg11.dtd">
<svg version="1.1" id="up" xmlns="http://www.w3.org/2000/svg" xmlns:xlink="http://www.w3.org/1999/xlink" x="0px" y="0px"
	 width="52px" height="52px" viewBox="0 0 52 52" enable-background="new 0 0 52 52" xml:space="preserve">
<path id="up_1_" d="M46.560551,34.689449l-19.5-19.5c-0.585939-0.58594-1.53516-0.58594-2.12109,0l-19.5,19.5
	c-0.58594,0.585941-0.58594,1.53516,0,2.12109C5.73242,37.103519,6.11621,37.25,6.5,37.25s0.76758-0.146481,1.06055-0.439449
	L26,18.37109l18.439449,18.439449C44.732422,37.103519,45.116211,37.25,45.5,37.25s0.767578-0.146481,1.060551-0.439449
	C47.146481,36.224609,47.146481,35.275391,46.560551,34.689449z"/>
</svg>
