<?xml version="1.0" encoding="utf-8"?>
<!-- Generator: Adobe Illustrator 18.0.0, SVG Export Plug-In . SVG Version: 6.00 Build 0)  -->
<!DOCTYPE svg PUBLIC "-//W3C//DTD SVG 1.1//EN" "http://www.w3.org/Graphics/SVG/1.1/DTD/svg11.dtd">
<svg version="1.1" id="facebook" xmlns="http://www.w3.org/2000/svg" xmlns:xlink="http://www.w3.org/1999/xlink" x="0px" y="0px"
	 width="52px" height="52px" viewBox="0 0 52 52" enable-background="new 0 0 52 52" xml:space="preserve">
<g id="facebook_1_">
	<path d="M23.13385,18.844543v3.539734h-4.144592v4.799744h4.144592V39.5h4.956482V27.184021h4.134094l0.618896-4.799744h-4.752991
		v-3.064453c0-1.389648,0.385925-2.33667,2.378784-2.33667l2.541626-0.00116v-4.292908
		C32.570984,12.630676,31.062317,12.5,29.307068,12.5C25.642578,12.5,23.13385,14.736755,23.13385,18.844543z"/>
	<path d="M26,2C12.745178,2,2,12.745178,2,26s10.745178,24,24,24s24-10.745178,24-24S39.254822,2,26,2z M26,47
		C14.420532,47,5,37.579407,5,26C5,14.420532,14.420532,5,26,5s21,9.420532,21,21S37.579468,47,26,47z"/>
</g>
</svg>
