<?xml version="1.0" encoding="utf-8"?>
<!-- Generator: Adobe Illustrator 18.0.0, SVG Export Plug-In . SVG Version: 6.00 Build 0)  -->
<!DOCTYPE svg PUBLIC "-//W3C//DTD SVG 1.1//EN" "http://www.w3.org/Graphics/SVG/1.1/DTD/svg11.dtd">
<svg version="1.1" id="facebook-filled" xmlns="http://www.w3.org/2000/svg" xmlns:xlink="http://www.w3.org/1999/xlink" x="0px"
	 y="0px" width="52px" height="52px" viewBox="0 0 52 52" enable-background="new 0 0 52 52" xml:space="preserve">
<path id="facebook-filled_1_" d="M26,2C12.745178,2,2,12.745178,2,26s10.745178,24,24,24s24-10.745178,24-24S39.254822,2,26,2z
	 M33.010742,16.981995l-2.541626,0.001099c-1.992859,0-2.378784,0.947021-2.378784,2.336731v3.064392h4.752991l-0.618896,4.799805
	h-4.134094V39.5H23.13385V27.184021h-4.144592v-4.799805h4.144592v-3.539673c0-4.107788,2.508728-6.344543,6.173218-6.344543
	c1.755249,0,3.263916,0.130676,3.703674,0.189087V16.981995z"/>
</svg>
